/*
WARNING: Do NOT edit the input and output ports in this file in a text
editor if you plan to continue editing the block that represents it in
the Block Editor! File corruption is VERY likely to occur.
*/
/*
Copyright (C) 1991-2009 Altera Corporation
Your use of Altera Corporation's design tools, logic functions 
and other software and tools, and its AMPP partner logic 
functions, and any output files from any of the foregoing 
(including device programming or simulation files), and any 
associated documentation or information are expressly subject 
to the terms and conditions of the Altera Program License 
Subscription Agreement, Altera MegaCore Function License 
Agreement, or other applicable license agreement, including, 
without limitation, that your use is for the sole purpose of 
programming logic devices manufactured by Altera and sold by 
Altera or its authorized distributors.  Please refer to the 
applicable agreement for further details.
*/
//#pragma file_not_in_maxplusii_format
(header "graphic" (version "1.3"))
(pin
	(input)
	(rect 80 152 248 168)
	(text "INPUT" (rect 133 0 169 13)(font "Arial" (font_size 6)))
	(text "clk" (rect 5 0 22 15)(font "Arial" ))
	(pt 168 8)
	(drawing
		(line (pt 92 12)(pt 117 12)(line_width 1))
		(line (pt 92 4)(pt 117 4)(line_width 1))
		(line (pt 121 8)(pt 168 8)(line_width 1))
		(line (pt 92 12)(pt 92 4)(line_width 1))
		(line (pt 117 4)(pt 121 8)(line_width 1))
		(line (pt 117 12)(pt 121 8)(line_width 1))
	)
	(text "VCC" (rect 136 7 160 20)(font "Arial" (font_size 6)))
)
(pin
	(input)
	(rect 200 280 368 296)
	(text "INPUT" (rect 133 0 169 13)(font "Arial" (font_size 6)))
	(text "level[1..0]" (rect 5 0 65 15)(font "Arial" ))
	(pt 168 8)
	(drawing
		(line (pt 92 12)(pt 117 12)(line_width 1))
		(line (pt 92 4)(pt 117 4)(line_width 1))
		(line (pt 121 8)(pt 168 8)(line_width 1))
		(line (pt 92 12)(pt 92 4)(line_width 1))
		(line (pt 117 4)(pt 121 8)(line_width 1))
		(line (pt 117 12)(pt 121 8)(line_width 1))
	)
	(text "VCC" (rect 136 7 160 20)(font "Arial" (font_size 6)))
)
(pin
	(input)
	(rect 80 256 248 272)
	(text "INPUT" (rect 133 0 169 13)(font "Arial" (font_size 6)))
	(text "pause" (rect 5 0 46 15)(font "Arial" ))
	(pt 168 8)
	(drawing
		(line (pt 92 12)(pt 117 12)(line_width 1))
		(line (pt 92 4)(pt 117 4)(line_width 1))
		(line (pt 121 8)(pt 168 8)(line_width 1))
		(line (pt 92 12)(pt 92 4)(line_width 1))
		(line (pt 117 4)(pt 121 8)(line_width 1))
		(line (pt 117 12)(pt 121 8)(line_width 1))
	)
	(text "VCC" (rect 136 7 160 20)(font "Arial" (font_size 6)))
)
(pin
	(output)
	(rect 672 184 848 200)
	(text "OUTPUT" (rect 1 0 51 13)(font "Arial" (font_size 6)))
	(text "game_clk" (rect 90 0 153 15)(font "Arial" ))
	(pt 0 8)
	(drawing
		(line (pt 0 8)(pt 52 8)(line_width 1))
		(line (pt 52 4)(pt 78 4)(line_width 1))
		(line (pt 52 12)(pt 78 12)(line_width 1))
		(line (pt 52 12)(pt 52 4)(line_width 1))
		(line (pt 78 4)(pt 82 8)(line_width 1))
		(line (pt 82 8)(pt 78 12)(line_width 1))
		(line (pt 78 12)(pt 82 8)(line_width 1))
	)
)
(pin
	(output)
	(rect 640 296 816 312)
	(text "OUTPUT" (rect 1 0 51 13)(font "Arial" (font_size 6)))
	(text "clk_btn" (rect 90 0 136 15)(font "Arial" ))
	(pt 0 8)
	(drawing
		(line (pt 0 8)(pt 52 8)(line_width 1))
		(line (pt 52 4)(pt 78 4)(line_width 1))
		(line (pt 52 12)(pt 78 12)(line_width 1))
		(line (pt 52 12)(pt 52 4)(line_width 1))
		(line (pt 78 4)(pt 82 8)(line_width 1))
		(line (pt 82 8)(pt 78 12)(line_width 1))
		(line (pt 78 12)(pt 82 8)(line_width 1))
	)
)
(pin
	(output)
	(rect 640 344 816 360)
	(text "OUTPUT" (rect 1 0 51 13)(font "Arial" (font_size 6)))
	(text "clk_switch" (rect 90 0 157 15)(font "Arial" ))
	(pt 0 8)
	(drawing
		(line (pt 0 8)(pt 52 8)(line_width 1))
		(line (pt 52 4)(pt 78 4)(line_width 1))
		(line (pt 52 12)(pt 78 12)(line_width 1))
		(line (pt 52 12)(pt 52 4)(line_width 1))
		(line (pt 78 4)(pt 82 8)(line_width 1))
		(line (pt 82 8)(pt 78 12)(line_width 1))
		(line (pt 78 12)(pt 82 8)(line_width 1))
	)
)
(symbol
	(rect 536 120 640 264)
	(text "MUX41" (rect 29 -1 88 19)(font "Courier New" (font_size 10)(bold)))
	(text "inst2" (rect 3 133 34 148)(font "Arial" ))
	(port
		(pt 0 120)
		(input)
		(text "S0" (rect 20 116 36 132)(font "Courier New" (bold)))
		(text "S0" (rect 20 116 36 132)(font "Courier New" (bold)))
		(line (pt 0 120)(pt 16 120)(line_width 1))
	)
	(port
		(pt 0 72)
		(input)
		(text "D2" (rect 20 68 36 84)(font "Courier New" (bold)))
		(text "D2" (rect 20 68 36 84)(font "Courier New" (bold)))
		(line (pt 0 72)(pt 16 72)(line_width 1))
	)
	(port
		(pt 0 104)
		(input)
		(text "S1" (rect 20 100 36 116)(font "Courier New" (bold)))
		(text "S1" (rect 20 100 36 116)(font "Courier New" (bold)))
		(line (pt 0 104)(pt 16 104)(line_width 1))
	)
	(port
		(pt 0 88)
		(input)
		(text "D3" (rect 20 84 36 100)(font "Courier New" (bold)))
		(text "D3" (rect 20 84 36 100)(font "Courier New" (bold)))
		(line (pt 0 88)(pt 16 88)(line_width 1))
	)
	(port
		(pt 0 40)
		(input)
		(text "D0" (rect 20 36 36 52)(font "Courier New" (bold)))
		(text "D0" (rect 20 36 36 52)(font "Courier New" (bold)))
		(line (pt 0 40)(pt 16 40)(line_width 1))
	)
	(port
		(pt 0 24)
		(input)
		(text "INH" (rect 20 20 44 36)(font "Courier New" (bold)))
		(text "INH" (rect 20 20 44 36)(font "Courier New" (bold)))
		(line (pt 0 24)(pt 16 24)(line_width 1))
	)
	(port
		(pt 0 56)
		(input)
		(text "D1" (rect 20 52 36 68)(font "Courier New" (bold)))
		(text "D1" (rect 20 52 36 68)(font "Courier New" (bold)))
		(line (pt 0 56)(pt 16 56)(line_width 1))
	)
	(port
		(pt 104 72)
		(output)
		(text "Q" (rect 81 68 89 84)(font "Courier New" (bold)))
		(text "Q" (rect 81 68 89 84)(font "Courier New" (bold)))
		(line (pt 88 72)(pt 104 72)(line_width 1))
	)
	(drawing
		(line (pt 16 128)(pt 16 16)(line_width 1))
		(line (pt 88 128)(pt 88 16)(line_width 1))
		(line (pt 16 128)(pt 88 128)(line_width 1))
		(line (pt 16 16)(pt 88 16)(line_width 1))
	)
)
(symbol
	(rect 496 104 528 136)
	(text "GND" (rect 3 -1 16 24)(font "Arial" (font_size 6))(vertical))
	(text "inst3" (rect -4 -2 11 29)(font "Arial" )(vertical)(invisible))
	(port
		(pt 32 16)
		(output)
		(text "1" (rect 18 0 26 16)(font "Courier New" (bold))(invisible))
		(text "1" (rect 16 6 32 14)(font "Courier New" (bold))(vertical)(invisible))
		(line (pt 24 16)(pt 32 16)(line_width 1))
	)
	(drawing
		(line (pt 24 24)(pt 16 16)(line_width 1))
		(line (pt 16 16)(pt 24 8)(line_width 1))
		(line (pt 24 24)(pt 24 8)(line_width 1))
	)
	(flipx_rotate90)
)
(symbol
	(rect 248 128 392 224)
	(text "clk_generator" (rect 23 2 139 21)(font "Arial" (font_size 10)))
	(text "inst" (rect 8 77 31 92)(font "Arial" ))
	(port
		(pt 0 32)
		(input)
		(text "clock" (rect 0 0 36 16)(font "Arial" (font_size 8)))
		(text "clock" (rect 26 24 62 40)(font "Arial" (font_size 8)))
		(line (pt 0 32)(pt 16 32)(line_width 1))
	)
	(port
		(pt 0 64)
		(input)
		(text "cnt_en" (rect 0 0 46 16)(font "Arial" (font_size 8)))
		(text "cnt_en" (rect 20 56 66 72)(font "Arial" (font_size 8)))
		(line (pt 0 64)(pt 16 64)(line_width 1))
	)
	(port
		(pt 144 56)
		(output)
		(text "q[27..0]" (rect 0 0 51 16)(font "Arial" (font_size 8)))
		(text "q[27..0]" (rect 81 48 132 64)(font "Arial" (font_size 8)))
		(line (pt 144 56)(pt 128 56)(line_width 3))
	)
	(drawing
		(text "up counter" (rect 70 18 138 33)(font "Arial" ))
		(line (pt 16 16)(pt 128 16)(line_width 1))
		(line (pt 128 16)(pt 128 80)(line_width 1))
		(line (pt 128 80)(pt 16 80)(line_width 1))
		(line (pt 16 80)(pt 16 16)(line_width 1))
		(line (pt 16 26)(pt 22 32)(line_width 1))
		(line (pt 22 32)(pt 16 38)(line_width 1))
	)
)
(symbol
	(rect 232 208 264 256)
	(text "NOT" (rect 0 22 13 47)(font "Arial" (font_size 6))(vertical))
	(text "inst1" (rect 21 14 36 45)(font "Arial" )(vertical))
	(port
		(pt 16 48)
		(input)
		(text "IN" (rect 2 7 18 23)(font "Courier New" (bold))(invisible))
		(text "IN" (rect 7 30 23 46)(font "Courier New" (bold))(vertical)(invisible))
		(line (pt 16 48)(pt 16 35)(line_width 1))
	)
	(port
		(pt 16 0)
		(output)
		(text "OUT" (rect 32 7 56 23)(font "Courier New" (bold))(invisible))
		(text "OUT" (rect 7 -8 23 16)(font "Courier New" (bold))(vertical)(invisible))
		(line (pt 16 9)(pt 16 0)(line_width 1))
	)
	(drawing
		(line (pt 25 35)(pt 7 35)(line_width 1))
		(line (pt 7 35)(pt 16 17)(line_width 1))
		(line (pt 25 35)(pt 16 17)(line_width 1))
		(circle (rect 12 9 20 17)(line_width 1))
	)
	(rotate90)
)
(connector
	(text "level[1]" (rect 488 208 532 223)(font "Arial" ))
	(pt 536 224)
	(pt 480 224)
)
(connector
	(text "level[0]" (rect 488 224 532 239)(font "Arial" ))
	(pt 536 240)
	(pt 480 240)
)
(connector
	(pt 528 144)
	(pt 528 120)
)
(connector
	(pt 536 144)
	(pt 528 144)
)
(connector
	(text "q[10]" (rect 584 336 615 351)(font "Arial" ))
	(pt 640 352)
	(pt 576 352)
)
(connector
	(pt 640 192)
	(pt 672 192)
)
(connector
	(text "q[25]" (rect 496 144 527 159)(font "Arial" ))
	(pt 536 160)
	(pt 488 160)
)
(connector
	(text "q[24]" (rect 502 160 533 175)(font "Arial" ))
	(pt 536 176)
	(pt 488 176)
)
(connector
	(text "q[23]" (rect 496 176 527 191)(font "Arial" ))
	(pt 536 192)
	(pt 488 192)
)
(connector
	(text "q[22]" (rect 496 192 527 207)(font "Arial" ))
	(pt 536 208)
	(pt 488 208)
)
(connector
	(text "q[21]" (rect 584 288 615 303)(font "Arial" ))
	(pt 640 304)
	(pt 576 304)
)
(connector
	(text "q[27..0]" (rect 400 168 447 183)(font "Arial" ))
	(pt 392 184)
	(pt 432 184)
	(bus)
)
(connector
	(pt 248 264)
	(pt 248 256)
)
(connector
	(pt 248 192)
	(pt 248 208)
)
