/*
WARNING: Do NOT edit the input and output ports in this file in a text
editor if you plan to continue editing the block that represents it in
the Block Editor! File corruption is VERY likely to occur.
*/
/*
Copyright (C) 1991-2009 Altera Corporation
Your use of Altera Corporation's design tools, logic functions 
and other software and tools, and its AMPP partner logic 
functions, and any output files from any of the foregoing 
(including device programming or simulation files), and any 
associated documentation or information are expressly subject 
to the terms and conditions of the Altera Program License 
Subscription Agreement, Altera MegaCore Function License 
Agreement, or other applicable license agreement, including, 
without limitation, that your use is for the sole purpose of 
programming logic devices manufactured by Altera and sold by 
Altera or its authorized distributors.  Please refer to the 
applicable agreement for further details.
*/
//#pragma file_not_in_maxplusii_format
(header "graphic" (version "1.3"))
(pin
	(input)
	(rect 24 128 192 144)
	(text "INPUT" (rect 133 0 169 13)(font "Arial" (font_size 6)))
	(text "switch" (rect 5 0 46 15)(font "Arial" ))
	(pt 168 8)
	(drawing
		(line (pt 92 12)(pt 117 12)(line_width 1))
		(line (pt 92 4)(pt 117 4)(line_width 1))
		(line (pt 121 8)(pt 168 8)(line_width 1))
		(line (pt 92 12)(pt 92 4)(line_width 1))
		(line (pt 117 4)(pt 121 8)(line_width 1))
		(line (pt 117 12)(pt 121 8)(line_width 1))
	)
	(text "VCC" (rect 136 7 160 20)(font "Arial" (font_size 6)))
)
(pin
	(input)
	(rect -224 336 -56 352)
	(text "INPUT" (rect 133 0 169 13)(font "Arial" (font_size 6)))
	(text "right" (rect 5 0 33 15)(font "Arial" ))
	(pt 168 8)
	(drawing
		(line (pt 92 12)(pt 117 12)(line_width 1))
		(line (pt 92 4)(pt 117 4)(line_width 1))
		(line (pt 121 8)(pt 168 8)(line_width 1))
		(line (pt 92 12)(pt 92 4)(line_width 1))
		(line (pt 117 4)(pt 121 8)(line_width 1))
		(line (pt 117 12)(pt 121 8)(line_width 1))
	)
	(text "VCC" (rect 136 7 160 20)(font "Arial" (font_size 6)))
)
(pin
	(input)
	(rect -184 472 -16 488)
	(text "INPUT" (rect 133 0 169 13)(font "Arial" (font_size 6)))
	(text "left" (rect 5 0 23 15)(font "Arial" ))
	(pt 168 8)
	(drawing
		(line (pt 92 12)(pt 117 12)(line_width 1))
		(line (pt 92 4)(pt 117 4)(line_width 1))
		(line (pt 121 8)(pt 168 8)(line_width 1))
		(line (pt 92 12)(pt 92 4)(line_width 1))
		(line (pt 117 4)(pt 121 8)(line_width 1))
		(line (pt 117 12)(pt 121 8)(line_width 1))
	)
	(text "VCC" (rect 136 7 160 20)(font "Arial" (font_size 6)))
)
(pin
	(input)
	(rect -248 320 -80 336)
	(text "INPUT" (rect 133 0 169 13)(font "Arial" (font_size 6)))
	(text "clk_left_right" (rect 5 0 86 15)(font "Arial" ))
	(pt 168 8)
	(drawing
		(line (pt 92 12)(pt 117 12)(line_width 1))
		(line (pt 92 4)(pt 117 4)(line_width 1))
		(line (pt 121 8)(pt 168 8)(line_width 1))
		(line (pt 92 12)(pt 92 4)(line_width 1))
		(line (pt 117 4)(pt 121 8)(line_width 1))
		(line (pt 117 12)(pt 121 8)(line_width 1))
	)
	(text "VCC" (rect 136 7 160 20)(font "Arial" (font_size 6)))
)
(pin
	(input)
	(rect 16 144 192 160)
	(text "INPUT" (rect 141 0 177 13)(font "Arial" (font_size 6)))
	(text "clk_up_down" (rect 5 0 91 15)(font "Arial" ))
	(pt 176 8)
	(drawing
		(line (pt 100 12)(pt 125 12)(line_width 1))
		(line (pt 100 4)(pt 125 4)(line_width 1))
		(line (pt 129 8)(pt 176 8)(line_width 1))
		(line (pt 100 12)(pt 100 4)(line_width 1))
		(line (pt 125 4)(pt 129 8)(line_width 1))
		(line (pt 125 12)(pt 129 8)(line_width 1))
	)
	(text "VCC" (rect 144 7 168 20)(font "Arial" (font_size 6)))
)
(pin
	(input)
	(rect 312 440 328 608)
	(text "INPUT" (rect 0 -1 13 35)(font "Arial" (font_size 6))(vertical))
	(text "clr" (rect 0 148 15 163)(font "Arial" )(vertical))
	(pt 8 0)
	(drawing
		(line (pt 12 76)(pt 12 51)(line_width 1))
		(line (pt 4 76)(pt 4 51)(line_width 1))
		(line (pt 8 47)(pt 8 0)(line_width 1))
		(line (pt 12 76)(pt 4 76)(line_width 1))
		(line (pt 4 51)(pt 8 47)(line_width 1))
		(line (pt 12 51)(pt 8 47)(line_width 1))
	)
	(rotate90)
	(text "VCC" (rect 7 8 20 32)(font "Arial" (font_size 6))(vertical))
)
(pin
	(output)
	(rect 416 320 597 336)
	(text "OUTPUT" (rect 1 0 51 13)(font "Arial" (font_size 6)))
	(text "player_h[3..0]" (rect 90 0 176 15)(font "Arial" ))
	(pt 0 8)
	(drawing
		(line (pt 0 8)(pt 52 8)(line_width 1))
		(line (pt 52 4)(pt 78 4)(line_width 1))
		(line (pt 52 12)(pt 78 12)(line_width 1))
		(line (pt 52 12)(pt 52 4)(line_width 1))
		(line (pt 78 4)(pt 82 8)(line_width 1))
		(line (pt 82 8)(pt 78 12)(line_width 1))
		(line (pt 78 12)(pt 82 8)(line_width 1))
	)
)
(pin
	(output)
	(rect 432 128 608 144)
	(text "OUTPUT" (rect 1 0 51 13)(font "Arial" (font_size 6)))
	(text "player_v" (rect 90 0 143 15)(font "Arial" ))
	(pt 0 8)
	(drawing
		(line (pt 0 8)(pt 52 8)(line_width 1))
		(line (pt 52 4)(pt 78 4)(line_width 1))
		(line (pt 52 12)(pt 78 12)(line_width 1))
		(line (pt 52 12)(pt 52 4)(line_width 1))
		(line (pt 78 4)(pt 82 8)(line_width 1))
		(line (pt 82 8)(pt 78 12)(line_width 1))
		(line (pt 78 12)(pt 82 8)(line_width 1))
	)
)
(symbol
	(rect 272 112 336 192)
	(text "DFF" (rect 1 0 23 13)(font "Arial" (font_size 6)))
	(text "inst" (rect 3 68 26 83)(font "Arial" ))
	(port
		(pt 32 80)
		(input)
		(text "CLRN" (rect 21 59 54 75)(font "Courier New" (bold)))
		(text "CLRN" (rect 21 58 54 74)(font "Courier New" (bold)))
		(line (pt 32 80)(pt 32 76)(line_width 1))
	)
	(port
		(pt 0 40)
		(input)
		(text "CLK" (rect 3 29 27 45)(font "Courier New" (bold))(invisible))
		(text "CLK" (rect 3 29 27 45)(font "Courier New" (bold))(invisible))
		(line (pt 0 40)(pt 12 40)(line_width 1))
	)
	(port
		(pt 0 24)
		(input)
		(text "D" (rect 14 20 22 36)(font "Courier New" (bold)))
		(text "D" (rect 14 20 22 36)(font "Courier New" (bold)))
		(line (pt 0 24)(pt 12 24)(line_width 1))
	)
	(port
		(pt 32 0)
		(input)
		(text "PRN" (rect 24 13 48 29)(font "Courier New" (bold)))
		(text "PRN" (rect 24 11 48 27)(font "Courier New" (bold)))
		(line (pt 32 4)(pt 32 0)(line_width 1))
	)
	(port
		(pt 64 24)
		(output)
		(text "Q" (rect 45 20 53 36)(font "Courier New" (bold)))
		(text "Q" (rect 45 20 53 36)(font "Courier New" (bold)))
		(line (pt 52 24)(pt 64 24)(line_width 1))
	)
	(drawing
		(line (pt 12 12)(pt 52 12)(line_width 1))
		(line (pt 12 68)(pt 52 68)(line_width 1))
		(line (pt 52 68)(pt 52 12)(line_width 1))
		(line (pt 12 68)(pt 12 12)(line_width 1))
		(line (pt 19 40)(pt 12 47)(line_width 1))
		(line (pt 12 32)(pt 20 40)(line_width 1))
		(circle (rect 28 4 36 12)(line_width 1))
		(circle (rect 28 68 36 76)(line_width 1))
	)
)
(symbol
	(rect 288 96 320 112)
	(text "VCC" (rect 7 0 31 13)(font "Arial" (font_size 6)))
	(text "inst1" (rect 3 5 34 20)(font "Arial" )(invisible))
	(port
		(pt 16 16)
		(output)
		(text "1" (rect 19 7 27 23)(font "Courier New" (bold))(invisible))
		(text "1" (rect 19 7 27 23)(font "Courier New" (bold))(invisible))
		(line (pt 16 16)(pt 16 8)(line_width 1))
	)
	(drawing
		(line (pt 8 8)(pt 24 8)(line_width 1))
	)
)
(symbol
	(rect 176 336 240 384)
	(text "XOR" (rect 1 0 26 13)(font "Arial" (font_size 6)))
	(text "inst12" (rect 3 37 43 52)(font "Arial" ))
	(port
		(pt 0 16)
		(input)
		(text "IN1" (rect 2 7 26 23)(font "Courier New" (bold))(invisible))
		(text "IN1" (rect 2 7 26 23)(font "Courier New" (bold))(invisible))
		(line (pt 0 16)(pt 11 16)(line_width 1))
	)
	(port
		(pt 0 32)
		(input)
		(text "IN2" (rect 2 23 26 39)(font "Courier New" (bold))(invisible))
		(text "IN2" (rect 2 23 26 39)(font "Courier New" (bold))(invisible))
		(line (pt 0 32)(pt 11 32)(line_width 1))
	)
	(port
		(pt 64 24)
		(output)
		(text "OUT" (rect 48 15 72 31)(font "Courier New" (bold))(invisible))
		(text "OUT" (rect 48 15 72 31)(font "Courier New" (bold))(invisible))
		(line (pt 49 24)(pt 64 24)(line_width 1))
	)
	(drawing
		(line (pt 14 13)(pt 25 13)(line_width 1))
		(line (pt 14 36)(pt 25 36)(line_width 1))
		(arc (pt 7 29)(pt 7 19)(rect -14 8 19 41)(line_width 1))
		(arc (pt 49 24)(pt 25 13)(rect -6 13 57 76)(line_width 1))
		(arc (pt 25 35)(pt 49 24)(rect -6 -27 57 36)(line_width 1))
		(arc (pt 8 36)(pt 8 12)(rect -21 7 14 42)(line_width 1))
	)
)
(symbol
	(rect 240 280 384 392)
	(text "counter16" (rect 36 2 122 21)(font "Arial" (font_size 10)))
	(text "inst3" (rect 8 93 39 108)(font "Arial" ))
	(port
		(pt 0 32)
		(input)
		(text "updown" (rect 0 0 51 16)(font "Arial" (font_size 8)))
		(text "updown" (rect 20 24 71 40)(font "Arial" (font_size 8)))
		(line (pt 0 32)(pt 16 32)(line_width 1))
	)
	(port
		(pt 0 48)
		(input)
		(text "clock" (rect 0 0 36 16)(font "Arial" (font_size 8)))
		(text "clock" (rect 26 40 62 56)(font "Arial" (font_size 8)))
		(line (pt 0 48)(pt 16 48)(line_width 1))
	)
	(port
		(pt 0 80)
		(input)
		(text "cnt_en" (rect 0 0 46 16)(font "Arial" (font_size 8)))
		(text "cnt_en" (rect 20 72 66 88)(font "Arial" (font_size 8)))
		(line (pt 0 80)(pt 16 80)(line_width 1))
	)
	(port
		(pt 80 112)
		(input)
		(text "aclr" (rect 0 0 16 24)(font "Arial" (font_size 8))(vertical))
		(text "aclr" (rect 72 71 88 95)(font "Arial" (font_size 8))(vertical))
		(line (pt 80 112)(pt 80 96)(line_width 1))
	)
	(port
		(pt 144 48)
		(output)
		(text "q[3..0]" (rect 0 0 43 16)(font "Arial" (font_size 8)))
		(text "q[3..0]" (rect 88 40 131 56)(font "Arial" (font_size 8)))
		(line (pt 144 48)(pt 128 48)(line_width 3))
	)
	(drawing
		(text "up/down" (rect 81 18 136 33)(font "Arial" ))
		(line (pt 16 16)(pt 128 16)(line_width 1))
		(line (pt 128 16)(pt 128 96)(line_width 1))
		(line (pt 128 96)(pt 16 96)(line_width 1))
		(line (pt 16 96)(pt 16 16)(line_width 1))
		(line (pt 16 42)(pt 22 48)(line_width 1))
		(line (pt 22 48)(pt 16 54)(line_width 1))
	)
)
(symbol
	(rect 32 488 96 536)
	(text "AND2" (rect 1 0 32 13)(font "Arial" (font_size 6)))
	(text "inst7" (rect 3 37 34 52)(font "Arial" ))
	(port
		(pt 0 16)
		(input)
		(text "IN1" (rect 2 7 26 23)(font "Courier New" (bold))(invisible))
		(text "IN1" (rect 2 7 26 23)(font "Courier New" (bold))(invisible))
		(line (pt 0 16)(pt 14 16)(line_width 1))
	)
	(port
		(pt 0 32)
		(input)
		(text "IN2" (rect 2 23 26 39)(font "Courier New" (bold))(invisible))
		(text "IN2" (rect 2 23 26 39)(font "Courier New" (bold))(invisible))
		(line (pt 0 32)(pt 14 32)(line_width 1))
	)
	(port
		(pt 64 24)
		(output)
		(text "OUT" (rect 48 15 72 31)(font "Courier New" (bold))(invisible))
		(text "OUT" (rect 48 15 72 31)(font "Courier New" (bold))(invisible))
		(line (pt 42 24)(pt 64 24)(line_width 1))
	)
	(drawing
		(line (pt 14 12)(pt 30 12)(line_width 1))
		(line (pt 14 37)(pt 31 37)(line_width 1))
		(line (pt 14 12)(pt 14 37)(line_width 1))
		(arc (pt 31 37)(pt 30 12)(rect 18 12 43 37)(line_width 1))
	)
)
(symbol
	(rect -80 504 -16 584)
	(text "OR4" (rect 1 0 25 13)(font "Arial" (font_size 6)))
	(text "inst10" (rect 3 69 43 84)(font "Arial" ))
	(port
		(pt 0 16)
		(input)
		(text "IN1" (rect 2 7 26 23)(font "Courier New" (bold))(invisible))
		(text "IN1" (rect 2 7 26 23)(font "Courier New" (bold))(invisible))
		(line (pt 0 16)(pt 13 16)(line_width 1))
	)
	(port
		(pt 0 48)
		(input)
		(text "IN3" (rect 2 39 26 55)(font "Courier New" (bold))(invisible))
		(text "IN3" (rect 2 39 26 55)(font "Courier New" (bold))(invisible))
		(line (pt 0 48)(pt 15 48)(line_width 1))
	)
	(port
		(pt 0 64)
		(input)
		(text "IN4" (rect 2 55 26 71)(font "Courier New" (bold))(invisible))
		(text "IN4" (rect 2 55 26 71)(font "Courier New" (bold))(invisible))
		(line (pt 0 64)(pt 13 64)(line_width 1))
	)
	(port
		(pt 0 32)
		(input)
		(text "IN2" (rect 2 23 26 39)(font "Courier New" (bold))(invisible))
		(text "IN2" (rect 2 23 26 39)(font "Courier New" (bold))(invisible))
		(line (pt 0 32)(pt 15 32)(line_width 1))
	)
	(port
		(pt 64 40)
		(output)
		(text "OUT" (rect 48 31 72 47)(font "Courier New" (bold))(invisible))
		(text "OUT" (rect 48 31 72 47)(font "Courier New" (bold))(invisible))
		(line (pt 48 40)(pt 64 40)(line_width 1))
	)
	(drawing
		(line (pt 13 67)(pt 13 51)(line_width 1))
		(line (pt 25 52)(pt 13 52)(line_width 1))
		(line (pt 13 12)(pt 13 29)(line_width 1))
		(line (pt 13 29)(pt 25 29)(line_width 1))
		(arc (pt 7 45)(pt 7 35)(rect -14 24 19 57)(line_width 1))
		(arc (pt 49 40)(pt 25 29)(rect -6 29 57 92)(line_width 1))
		(arc (pt 25 51)(pt 49 40)(rect -6 -11 57 52)(line_width 1))
	)
)
(symbol
	(rect -120 376 -56 456)
	(text "NAND4" (rect 1 0 41 13)(font "Arial" (font_size 6)))
	(text "inst11" (rect 3 69 43 84)(font "Arial" ))
	(port
		(pt 0 16)
		(input)
		(text "IN1" (rect 2 7 26 23)(font "Courier New" (bold))(invisible))
		(text "IN1" (rect 2 7 26 23)(font "Courier New" (bold))(invisible))
		(line (pt 0 16)(pt 18 16)(line_width 1))
	)
	(port
		(pt 0 64)
		(input)
		(text "IN4" (rect 2 55 26 71)(font "Courier New" (bold))(invisible))
		(text "IN4" (rect 2 55 26 71)(font "Courier New" (bold))(invisible))
		(line (pt 0 64)(pt 18 64)(line_width 1))
	)
	(port
		(pt 0 32)
		(input)
		(text "IN2" (rect 2 23 26 39)(font "Courier New" (bold))(invisible))
		(text "IN2" (rect 2 23 26 39)(font "Courier New" (bold))(invisible))
		(line (pt 0 32)(pt 18 32)(line_width 1))
	)
	(port
		(pt 0 48)
		(input)
		(text "IN3" (rect 2 39 26 55)(font "Courier New" (bold))(invisible))
		(text "IN3" (rect 2 39 26 55)(font "Courier New" (bold))(invisible))
		(line (pt 0 48)(pt 18 48)(line_width 1))
	)
	(port
		(pt 64 40)
		(output)
		(text "OUT" (rect 48 31 72 47)(font "Courier New" (bold))(invisible))
		(text "OUT" (rect 48 31 72 47)(font "Courier New" (bold))(invisible))
		(line (pt 54 40)(pt 64 40)(line_width 1))
	)
	(drawing
		(line (pt 18 28)(pt 34 28)(line_width 1))
		(line (pt 18 53)(pt 34 53)(line_width 1))
		(line (pt 18 67)(pt 18 13)(line_width 1))
		(arc (pt 34 52)(pt 34 28)(rect 22 28 47 53)(line_width 1))
		(circle (rect 46 36 54 44)(line_width 1))
	)
)
(symbol
	(rect 0 328 64 376)
	(text "AND2" (rect 1 0 32 13)(font "Arial" (font_size 6)))
	(text "inst13" (rect 3 37 43 52)(font "Arial" ))
	(port
		(pt 0 16)
		(input)
		(text "IN1" (rect 2 7 26 23)(font "Courier New" (bold))(invisible))
		(text "IN1" (rect 2 7 26 23)(font "Courier New" (bold))(invisible))
		(line (pt 0 16)(pt 14 16)(line_width 1))
	)
	(port
		(pt 0 32)
		(input)
		(text "IN2" (rect 2 23 26 39)(font "Courier New" (bold))(invisible))
		(text "IN2" (rect 2 23 26 39)(font "Courier New" (bold))(invisible))
		(line (pt 0 32)(pt 14 32)(line_width 1))
	)
	(port
		(pt 64 24)
		(output)
		(text "OUT" (rect 48 15 72 31)(font "Courier New" (bold))(invisible))
		(text "OUT" (rect 48 15 72 31)(font "Courier New" (bold))(invisible))
		(line (pt 42 24)(pt 64 24)(line_width 1))
	)
	(drawing
		(line (pt 14 12)(pt 30 12)(line_width 1))
		(line (pt 14 37)(pt 31 37)(line_width 1))
		(line (pt 14 12)(pt 14 37)(line_width 1))
		(arc (pt 31 37)(pt 30 12)(rect 18 12 43 37)(line_width 1))
	)
)
(connector
	(pt 192 136)
	(pt 272 136)
)
(connector
	(pt 272 152)
	(pt 192 152)
)
(connector
	(text "<<__$DEF_ALIAS2231>>" (rect 396 312 561 327)(font "Arial" )(invisible))
	(pt 384 328)
	(pt 416 328)
	(bus)
)
(connector
	(pt 336 136)
	(pt 432 136)
)
(connector
	(text "clr" (rect 304 400 319 415)(font "Arial" )(vertical))
	(pt 320 392)
	(pt 320 440)
)
(connector
	(pt 304 112)
	(pt 304 192)
)
(connector
	(pt -80 328)
	(pt 240 328)
)
(connector
	(pt 240 312)
	(pt -40 312)
)
(connector
	(text "player_h[0]" (rect -184 376 -114 391)(font "Arial" ))
	(pt -192 392)
	(pt -120 392)
)
(connector
	(text "player_h[2]" (rect -184 408 -114 423)(font "Arial" ))
	(pt -192 424)
	(pt -120 424)
)
(connector
	(text "player_h[1]" (rect -184 392 -114 407)(font "Arial" ))
	(pt -192 408)
	(pt -120 408)
)
(connector
	(text "player_h[3]" (rect -184 424 -114 439)(font "Arial" ))
	(pt -192 440)
	(pt -120 440)
)
(connector
	(pt -16 416)
	(pt -56 416)
)
(connector
	(pt -16 416)
	(pt -16 360)
)
(connector
	(pt -16 360)
	(pt 0 360)
)
(connector
	(pt -40 312)
	(pt -40 344)
)
(connector
	(pt -56 344)
	(pt -40 344)
)
(connector
	(pt -40 344)
	(pt 0 344)
)
(connector
	(pt 64 352)
	(pt 176 352)
)
(connector
	(pt 24 544)
	(pt 24 520)
)
(connector
	(pt 24 520)
	(pt 32 520)
)
(connector
	(pt 24 480)
	(pt 24 504)
)
(connector
	(pt 24 504)
	(pt 32 504)
)
(connector
	(pt 96 512)
	(pt 104 512)
)
(connector
	(pt 104 368)
	(pt 104 512)
)
(connector
	(pt 176 368)
	(pt 104 368)
)
(connector
	(text "player_h[0]" (rect -144 504 -74 519)(font "Arial" ))
	(pt -152 520)
	(pt -80 520)
)
(connector
	(text "player_h[2]" (rect -144 536 -74 551)(font "Arial" ))
	(pt -152 552)
	(pt -80 552)
)
(connector
	(text "player_h[1]" (rect -144 520 -74 535)(font "Arial" ))
	(pt -152 536)
	(pt -80 536)
)
(connector
	(text "player_h[3]" (rect -144 552 -74 567)(font "Arial" ))
	(pt -152 568)
	(pt -80 568)
)
(connector
	(pt -16 544)
	(pt 24 544)
)
(connector
	(pt -16 480)
	(pt 24 480)
)
(junction (pt -40 344))
