/*
WARNING: Do NOT edit the input and output ports in this file in a text
editor if you plan to continue editing the block that represents it in
the Block Editor! File corruption is VERY likely to occur.
*/
/*
Copyright (C) 1991-2009 Altera Corporation
Your use of Altera Corporation's design tools, logic functions 
and other software and tools, and its AMPP partner logic 
functions, and any output files from any of the foregoing 
(including device programming or simulation files), and any 
associated documentation or information are expressly subject 
to the terms and conditions of the Altera Program License 
Subscription Agreement, Altera MegaCore Function License 
Agreement, or other applicable license agreement, including, 
without limitation, that your use is for the sole purpose of 
programming logic devices manufactured by Altera and sold by 
Altera or its authorized distributors.  Please refer to the 
applicable agreement for further details.
*/
//#pragma file_not_in_maxplusii_format
(header "graphic" (version "1.3"))
(pin
	(input)
	(rect 8 80 176 96)
	(text "INPUT" (rect 133 0 169 13)(font "Arial" (font_size 6)))
	(text "clr" (rect 9 0 24 15)(font "Arial" ))
	(pt 168 8)
	(drawing
		(line (pt 92 12)(pt 117 12)(line_width 1))
		(line (pt 92 4)(pt 117 4)(line_width 1))
		(line (pt 121 8)(pt 168 8)(line_width 1))
		(line (pt 92 12)(pt 92 4)(line_width 1))
		(line (pt 117 4)(pt 121 8)(line_width 1))
		(line (pt 117 12)(pt 121 8)(line_width 1))
	)
	(text "VCC" (rect 136 7 160 20)(font "Arial" (font_size 6)))
)
(pin
	(input)
	(rect 8 104 176 120)
	(text "INPUT" (rect 133 0 169 13)(font "Arial" (font_size 6)))
	(text "clk" (rect 9 0 26 15)(font "Arial" ))
	(pt 168 8)
	(drawing
		(line (pt 92 12)(pt 117 12)(line_width 1))
		(line (pt 92 4)(pt 117 4)(line_width 1))
		(line (pt 121 8)(pt 168 8)(line_width 1))
		(line (pt 92 12)(pt 92 4)(line_width 1))
		(line (pt 117 4)(pt 121 8)(line_width 1))
		(line (pt 117 12)(pt 121 8)(line_width 1))
	)
	(text "VCC" (rect 136 7 160 20)(font "Arial" (font_size 6)))
)
(pin
	(input)
	(rect 8 136 176 152)
	(text "INPUT" (rect 133 0 169 13)(font "Arial" (font_size 6)))
	(text "obs_up" (rect 9 0 58 15)(font "Arial" ))
	(pt 168 8)
	(drawing
		(line (pt 92 12)(pt 117 12)(line_width 1))
		(line (pt 92 4)(pt 117 4)(line_width 1))
		(line (pt 121 8)(pt 168 8)(line_width 1))
		(line (pt 92 12)(pt 92 4)(line_width 1))
		(line (pt 117 4)(pt 121 8)(line_width 1))
		(line (pt 117 12)(pt 121 8)(line_width 1))
	)
	(text "VCC" (rect 136 7 160 20)(font "Arial" (font_size 6)))
)
(pin
	(input)
	(rect 8 168 176 184)
	(text "INPUT" (rect 133 0 169 13)(font "Arial" (font_size 6)))
	(text "obs_down" (rect 9 0 77 15)(font "Arial" ))
	(pt 168 8)
	(drawing
		(line (pt 92 12)(pt 117 12)(line_width 1))
		(line (pt 92 4)(pt 117 4)(line_width 1))
		(line (pt 121 8)(pt 168 8)(line_width 1))
		(line (pt 92 12)(pt 92 4)(line_width 1))
		(line (pt 117 4)(pt 121 8)(line_width 1))
		(line (pt 117 12)(pt 121 8)(line_width 1))
	)
	(text "VCC" (rect 136 7 160 20)(font "Arial" (font_size 6)))
)
(pin
	(output)
	(rect 440 520 616 536)
	(text "OUTPUT" (rect 1 0 51 13)(font "Arial" (font_size 6)))
	(text "digit3_a" (rect 90 0 141 15)(font "Arial" ))
	(pt 0 8)
	(drawing
		(line (pt 0 8)(pt 52 8)(line_width 1))
		(line (pt 52 4)(pt 78 4)(line_width 1))
		(line (pt 52 12)(pt 78 12)(line_width 1))
		(line (pt 52 12)(pt 52 4)(line_width 1))
		(line (pt 78 4)(pt 82 8)(line_width 1))
		(line (pt 82 8)(pt 78 12)(line_width 1))
		(line (pt 78 12)(pt 82 8)(line_width 1))
	)
)
(pin
	(output)
	(rect 440 536 616 552)
	(text "OUTPUT" (rect 1 0 51 13)(font "Arial" (font_size 6)))
	(text "digit3_b" (rect 90 0 141 15)(font "Arial" ))
	(pt 0 8)
	(drawing
		(line (pt 0 8)(pt 52 8)(line_width 1))
		(line (pt 52 4)(pt 78 4)(line_width 1))
		(line (pt 52 12)(pt 78 12)(line_width 1))
		(line (pt 52 12)(pt 52 4)(line_width 1))
		(line (pt 78 4)(pt 82 8)(line_width 1))
		(line (pt 82 8)(pt 78 12)(line_width 1))
		(line (pt 78 12)(pt 82 8)(line_width 1))
	)
)
(pin
	(output)
	(rect 440 552 616 568)
	(text "OUTPUT" (rect 1 0 51 13)(font "Arial" (font_size 6)))
	(text "digit3_c" (rect 90 0 140 15)(font "Arial" ))
	(pt 0 8)
	(drawing
		(line (pt 0 8)(pt 52 8)(line_width 1))
		(line (pt 52 4)(pt 78 4)(line_width 1))
		(line (pt 52 12)(pt 78 12)(line_width 1))
		(line (pt 52 12)(pt 52 4)(line_width 1))
		(line (pt 78 4)(pt 82 8)(line_width 1))
		(line (pt 82 8)(pt 78 12)(line_width 1))
		(line (pt 78 12)(pt 82 8)(line_width 1))
	)
)
(pin
	(output)
	(rect 440 568 616 584)
	(text "OUTPUT" (rect 1 0 51 13)(font "Arial" (font_size 6)))
	(text "digit3_d" (rect 90 0 141 15)(font "Arial" ))
	(pt 0 8)
	(drawing
		(line (pt 0 8)(pt 52 8)(line_width 1))
		(line (pt 52 4)(pt 78 4)(line_width 1))
		(line (pt 52 12)(pt 78 12)(line_width 1))
		(line (pt 52 12)(pt 52 4)(line_width 1))
		(line (pt 78 4)(pt 82 8)(line_width 1))
		(line (pt 82 8)(pt 78 12)(line_width 1))
		(line (pt 78 12)(pt 82 8)(line_width 1))
	)
)
(pin
	(output)
	(rect 440 584 616 600)
	(text "OUTPUT" (rect 1 0 51 13)(font "Arial" (font_size 6)))
	(text "digit3_e" (rect 90 0 141 15)(font "Arial" ))
	(pt 0 8)
	(drawing
		(line (pt 0 8)(pt 52 8)(line_width 1))
		(line (pt 52 4)(pt 78 4)(line_width 1))
		(line (pt 52 12)(pt 78 12)(line_width 1))
		(line (pt 52 12)(pt 52 4)(line_width 1))
		(line (pt 78 4)(pt 82 8)(line_width 1))
		(line (pt 82 8)(pt 78 12)(line_width 1))
		(line (pt 78 12)(pt 82 8)(line_width 1))
	)
)
(pin
	(output)
	(rect 440 600 616 616)
	(text "OUTPUT" (rect 1 0 51 13)(font "Arial" (font_size 6)))
	(text "digit3_f" (rect 90 0 137 15)(font "Arial" ))
	(pt 0 8)
	(drawing
		(line (pt 0 8)(pt 52 8)(line_width 1))
		(line (pt 52 4)(pt 78 4)(line_width 1))
		(line (pt 52 12)(pt 78 12)(line_width 1))
		(line (pt 52 12)(pt 52 4)(line_width 1))
		(line (pt 78 4)(pt 82 8)(line_width 1))
		(line (pt 82 8)(pt 78 12)(line_width 1))
		(line (pt 78 12)(pt 82 8)(line_width 1))
	)
)
(pin
	(output)
	(rect 440 616 616 632)
	(text "OUTPUT" (rect 1 0 51 13)(font "Arial" (font_size 6)))
	(text "digit3_g" (rect 90 0 141 15)(font "Arial" ))
	(pt 0 8)
	(drawing
		(line (pt 0 8)(pt 52 8)(line_width 1))
		(line (pt 52 4)(pt 78 4)(line_width 1))
		(line (pt 52 12)(pt 78 12)(line_width 1))
		(line (pt 52 12)(pt 52 4)(line_width 1))
		(line (pt 78 4)(pt 82 8)(line_width 1))
		(line (pt 82 8)(pt 78 12)(line_width 1))
		(line (pt 78 12)(pt 82 8)(line_width 1))
	)
)
(pin
	(output)
	(rect 824 520 1000 536)
	(text "OUTPUT" (rect 1 0 51 13)(font "Arial" (font_size 6)))
	(text "digit2_a" (rect 90 0 141 15)(font "Arial" ))
	(pt 0 8)
	(drawing
		(line (pt 0 8)(pt 52 8)(line_width 1))
		(line (pt 52 4)(pt 78 4)(line_width 1))
		(line (pt 52 12)(pt 78 12)(line_width 1))
		(line (pt 52 12)(pt 52 4)(line_width 1))
		(line (pt 78 4)(pt 82 8)(line_width 1))
		(line (pt 82 8)(pt 78 12)(line_width 1))
		(line (pt 78 12)(pt 82 8)(line_width 1))
	)
)
(pin
	(output)
	(rect 824 536 1000 552)
	(text "OUTPUT" (rect 1 0 51 13)(font "Arial" (font_size 6)))
	(text "digit2_b" (rect 90 0 141 15)(font "Arial" ))
	(pt 0 8)
	(drawing
		(line (pt 0 8)(pt 52 8)(line_width 1))
		(line (pt 52 4)(pt 78 4)(line_width 1))
		(line (pt 52 12)(pt 78 12)(line_width 1))
		(line (pt 52 12)(pt 52 4)(line_width 1))
		(line (pt 78 4)(pt 82 8)(line_width 1))
		(line (pt 82 8)(pt 78 12)(line_width 1))
		(line (pt 78 12)(pt 82 8)(line_width 1))
	)
)
(pin
	(output)
	(rect 824 552 1000 568)
	(text "OUTPUT" (rect 1 0 51 13)(font "Arial" (font_size 6)))
	(text "digit2_c" (rect 90 0 140 15)(font "Arial" ))
	(pt 0 8)
	(drawing
		(line (pt 0 8)(pt 52 8)(line_width 1))
		(line (pt 52 4)(pt 78 4)(line_width 1))
		(line (pt 52 12)(pt 78 12)(line_width 1))
		(line (pt 52 12)(pt 52 4)(line_width 1))
		(line (pt 78 4)(pt 82 8)(line_width 1))
		(line (pt 82 8)(pt 78 12)(line_width 1))
		(line (pt 78 12)(pt 82 8)(line_width 1))
	)
)
(pin
	(output)
	(rect 824 568 1000 584)
	(text "OUTPUT" (rect 1 0 51 13)(font "Arial" (font_size 6)))
	(text "digit2_d" (rect 90 0 141 15)(font "Arial" ))
	(pt 0 8)
	(drawing
		(line (pt 0 8)(pt 52 8)(line_width 1))
		(line (pt 52 4)(pt 78 4)(line_width 1))
		(line (pt 52 12)(pt 78 12)(line_width 1))
		(line (pt 52 12)(pt 52 4)(line_width 1))
		(line (pt 78 4)(pt 82 8)(line_width 1))
		(line (pt 82 8)(pt 78 12)(line_width 1))
		(line (pt 78 12)(pt 82 8)(line_width 1))
	)
)
(pin
	(output)
	(rect 824 584 1000 600)
	(text "OUTPUT" (rect 1 0 51 13)(font "Arial" (font_size 6)))
	(text "digit2_e" (rect 90 0 141 15)(font "Arial" ))
	(pt 0 8)
	(drawing
		(line (pt 0 8)(pt 52 8)(line_width 1))
		(line (pt 52 4)(pt 78 4)(line_width 1))
		(line (pt 52 12)(pt 78 12)(line_width 1))
		(line (pt 52 12)(pt 52 4)(line_width 1))
		(line (pt 78 4)(pt 82 8)(line_width 1))
		(line (pt 82 8)(pt 78 12)(line_width 1))
		(line (pt 78 12)(pt 82 8)(line_width 1))
	)
)
(pin
	(output)
	(rect 824 600 1000 616)
	(text "OUTPUT" (rect 1 0 51 13)(font "Arial" (font_size 6)))
	(text "digit2_f" (rect 90 0 137 15)(font "Arial" ))
	(pt 0 8)
	(drawing
		(line (pt 0 8)(pt 52 8)(line_width 1))
		(line (pt 52 4)(pt 78 4)(line_width 1))
		(line (pt 52 12)(pt 78 12)(line_width 1))
		(line (pt 52 12)(pt 52 4)(line_width 1))
		(line (pt 78 4)(pt 82 8)(line_width 1))
		(line (pt 82 8)(pt 78 12)(line_width 1))
		(line (pt 78 12)(pt 82 8)(line_width 1))
	)
)
(pin
	(output)
	(rect 824 616 1000 632)
	(text "OUTPUT" (rect 1 0 51 13)(font "Arial" (font_size 6)))
	(text "digit2_g" (rect 90 0 141 15)(font "Arial" ))
	(pt 0 8)
	(drawing
		(line (pt 0 8)(pt 52 8)(line_width 1))
		(line (pt 52 4)(pt 78 4)(line_width 1))
		(line (pt 52 12)(pt 78 12)(line_width 1))
		(line (pt 52 12)(pt 52 4)(line_width 1))
		(line (pt 78 4)(pt 82 8)(line_width 1))
		(line (pt 82 8)(pt 78 12)(line_width 1))
		(line (pt 78 12)(pt 82 8)(line_width 1))
	)
)
(pin
	(output)
	(rect 1208 520 1384 536)
	(text "OUTPUT" (rect 1 0 51 13)(font "Arial" (font_size 6)))
	(text "digit1_a" (rect 90 0 141 15)(font "Arial" ))
	(pt 0 8)
	(drawing
		(line (pt 0 8)(pt 52 8)(line_width 1))
		(line (pt 52 4)(pt 78 4)(line_width 1))
		(line (pt 52 12)(pt 78 12)(line_width 1))
		(line (pt 52 12)(pt 52 4)(line_width 1))
		(line (pt 78 4)(pt 82 8)(line_width 1))
		(line (pt 82 8)(pt 78 12)(line_width 1))
		(line (pt 78 12)(pt 82 8)(line_width 1))
	)
)
(pin
	(output)
	(rect 1208 536 1384 552)
	(text "OUTPUT" (rect 1 0 51 13)(font "Arial" (font_size 6)))
	(text "digit1_b" (rect 90 0 141 15)(font "Arial" ))
	(pt 0 8)
	(drawing
		(line (pt 0 8)(pt 52 8)(line_width 1))
		(line (pt 52 4)(pt 78 4)(line_width 1))
		(line (pt 52 12)(pt 78 12)(line_width 1))
		(line (pt 52 12)(pt 52 4)(line_width 1))
		(line (pt 78 4)(pt 82 8)(line_width 1))
		(line (pt 82 8)(pt 78 12)(line_width 1))
		(line (pt 78 12)(pt 82 8)(line_width 1))
	)
)
(pin
	(output)
	(rect 1208 552 1384 568)
	(text "OUTPUT" (rect 1 0 51 13)(font "Arial" (font_size 6)))
	(text "digit1_c" (rect 90 0 140 15)(font "Arial" ))
	(pt 0 8)
	(drawing
		(line (pt 0 8)(pt 52 8)(line_width 1))
		(line (pt 52 4)(pt 78 4)(line_width 1))
		(line (pt 52 12)(pt 78 12)(line_width 1))
		(line (pt 52 12)(pt 52 4)(line_width 1))
		(line (pt 78 4)(pt 82 8)(line_width 1))
		(line (pt 82 8)(pt 78 12)(line_width 1))
		(line (pt 78 12)(pt 82 8)(line_width 1))
	)
)
(pin
	(output)
	(rect 1208 568 1384 584)
	(text "OUTPUT" (rect 1 0 51 13)(font "Arial" (font_size 6)))
	(text "digit1_d" (rect 90 0 141 15)(font "Arial" ))
	(pt 0 8)
	(drawing
		(line (pt 0 8)(pt 52 8)(line_width 1))
		(line (pt 52 4)(pt 78 4)(line_width 1))
		(line (pt 52 12)(pt 78 12)(line_width 1))
		(line (pt 52 12)(pt 52 4)(line_width 1))
		(line (pt 78 4)(pt 82 8)(line_width 1))
		(line (pt 82 8)(pt 78 12)(line_width 1))
		(line (pt 78 12)(pt 82 8)(line_width 1))
	)
)
(pin
	(output)
	(rect 1208 584 1384 600)
	(text "OUTPUT" (rect 1 0 51 13)(font "Arial" (font_size 6)))
	(text "digit1_e" (rect 90 0 141 15)(font "Arial" ))
	(pt 0 8)
	(drawing
		(line (pt 0 8)(pt 52 8)(line_width 1))
		(line (pt 52 4)(pt 78 4)(line_width 1))
		(line (pt 52 12)(pt 78 12)(line_width 1))
		(line (pt 52 12)(pt 52 4)(line_width 1))
		(line (pt 78 4)(pt 82 8)(line_width 1))
		(line (pt 82 8)(pt 78 12)(line_width 1))
		(line (pt 78 12)(pt 82 8)(line_width 1))
	)
)
(pin
	(output)
	(rect 1208 600 1384 616)
	(text "OUTPUT" (rect 1 0 51 13)(font "Arial" (font_size 6)))
	(text "digit1_f" (rect 90 0 137 15)(font "Arial" ))
	(pt 0 8)
	(drawing
		(line (pt 0 8)(pt 52 8)(line_width 1))
		(line (pt 52 4)(pt 78 4)(line_width 1))
		(line (pt 52 12)(pt 78 12)(line_width 1))
		(line (pt 52 12)(pt 52 4)(line_width 1))
		(line (pt 78 4)(pt 82 8)(line_width 1))
		(line (pt 82 8)(pt 78 12)(line_width 1))
		(line (pt 78 12)(pt 82 8)(line_width 1))
	)
)
(pin
	(output)
	(rect 1208 616 1384 632)
	(text "OUTPUT" (rect 1 0 51 13)(font "Arial" (font_size 6)))
	(text "digit1_g" (rect 90 0 141 15)(font "Arial" ))
	(pt 0 8)
	(drawing
		(line (pt 0 8)(pt 52 8)(line_width 1))
		(line (pt 52 4)(pt 78 4)(line_width 1))
		(line (pt 52 12)(pt 78 12)(line_width 1))
		(line (pt 52 12)(pt 52 4)(line_width 1))
		(line (pt 78 4)(pt 82 8)(line_width 1))
		(line (pt 82 8)(pt 78 12)(line_width 1))
		(line (pt 78 12)(pt 82 8)(line_width 1))
	)
)
(pin
	(output)
	(rect 1592 520 1768 536)
	(text "OUTPUT" (rect 1 0 51 13)(font "Arial" (font_size 6)))
	(text "digit0_a" (rect 90 0 141 15)(font "Arial" ))
	(pt 0 8)
	(drawing
		(line (pt 0 8)(pt 52 8)(line_width 1))
		(line (pt 52 4)(pt 78 4)(line_width 1))
		(line (pt 52 12)(pt 78 12)(line_width 1))
		(line (pt 52 12)(pt 52 4)(line_width 1))
		(line (pt 78 4)(pt 82 8)(line_width 1))
		(line (pt 82 8)(pt 78 12)(line_width 1))
		(line (pt 78 12)(pt 82 8)(line_width 1))
	)
)
(pin
	(output)
	(rect 1592 536 1768 552)
	(text "OUTPUT" (rect 1 0 51 13)(font "Arial" (font_size 6)))
	(text "digit0_b" (rect 90 0 141 15)(font "Arial" ))
	(pt 0 8)
	(drawing
		(line (pt 0 8)(pt 52 8)(line_width 1))
		(line (pt 52 4)(pt 78 4)(line_width 1))
		(line (pt 52 12)(pt 78 12)(line_width 1))
		(line (pt 52 12)(pt 52 4)(line_width 1))
		(line (pt 78 4)(pt 82 8)(line_width 1))
		(line (pt 82 8)(pt 78 12)(line_width 1))
		(line (pt 78 12)(pt 82 8)(line_width 1))
	)
)
(pin
	(output)
	(rect 1592 552 1768 568)
	(text "OUTPUT" (rect 1 0 51 13)(font "Arial" (font_size 6)))
	(text "digit0_c" (rect 90 0 140 15)(font "Arial" ))
	(pt 0 8)
	(drawing
		(line (pt 0 8)(pt 52 8)(line_width 1))
		(line (pt 52 4)(pt 78 4)(line_width 1))
		(line (pt 52 12)(pt 78 12)(line_width 1))
		(line (pt 52 12)(pt 52 4)(line_width 1))
		(line (pt 78 4)(pt 82 8)(line_width 1))
		(line (pt 82 8)(pt 78 12)(line_width 1))
		(line (pt 78 12)(pt 82 8)(line_width 1))
	)
)
(pin
	(output)
	(rect 1592 568 1768 584)
	(text "OUTPUT" (rect 1 0 51 13)(font "Arial" (font_size 6)))
	(text "digit0_d" (rect 90 0 141 15)(font "Arial" ))
	(pt 0 8)
	(drawing
		(line (pt 0 8)(pt 52 8)(line_width 1))
		(line (pt 52 4)(pt 78 4)(line_width 1))
		(line (pt 52 12)(pt 78 12)(line_width 1))
		(line (pt 52 12)(pt 52 4)(line_width 1))
		(line (pt 78 4)(pt 82 8)(line_width 1))
		(line (pt 82 8)(pt 78 12)(line_width 1))
		(line (pt 78 12)(pt 82 8)(line_width 1))
	)
)
(pin
	(output)
	(rect 1592 584 1768 600)
	(text "OUTPUT" (rect 1 0 51 13)(font "Arial" (font_size 6)))
	(text "digit0_e" (rect 90 0 141 15)(font "Arial" ))
	(pt 0 8)
	(drawing
		(line (pt 0 8)(pt 52 8)(line_width 1))
		(line (pt 52 4)(pt 78 4)(line_width 1))
		(line (pt 52 12)(pt 78 12)(line_width 1))
		(line (pt 52 12)(pt 52 4)(line_width 1))
		(line (pt 78 4)(pt 82 8)(line_width 1))
		(line (pt 82 8)(pt 78 12)(line_width 1))
		(line (pt 78 12)(pt 82 8)(line_width 1))
	)
)
(pin
	(output)
	(rect 1592 600 1768 616)
	(text "OUTPUT" (rect 1 0 51 13)(font "Arial" (font_size 6)))
	(text "digit0_f" (rect 90 0 137 15)(font "Arial" ))
	(pt 0 8)
	(drawing
		(line (pt 0 8)(pt 52 8)(line_width 1))
		(line (pt 52 4)(pt 78 4)(line_width 1))
		(line (pt 52 12)(pt 78 12)(line_width 1))
		(line (pt 52 12)(pt 52 4)(line_width 1))
		(line (pt 78 4)(pt 82 8)(line_width 1))
		(line (pt 82 8)(pt 78 12)(line_width 1))
		(line (pt 78 12)(pt 82 8)(line_width 1))
	)
)
(pin
	(output)
	(rect 1592 616 1768 632)
	(text "OUTPUT" (rect 1 0 51 13)(font "Arial" (font_size 6)))
	(text "digit0_g" (rect 90 0 141 15)(font "Arial" ))
	(pt 0 8)
	(drawing
		(line (pt 0 8)(pt 52 8)(line_width 1))
		(line (pt 52 4)(pt 78 4)(line_width 1))
		(line (pt 52 12)(pt 78 12)(line_width 1))
		(line (pt 52 12)(pt 52 4)(line_width 1))
		(line (pt 78 4)(pt 82 8)(line_width 1))
		(line (pt 82 8)(pt 78 12)(line_width 1))
		(line (pt 78 12)(pt 82 8)(line_width 1))
	)
)
(symbol
	(rect 256 144 320 192)
	(text "OR2" (rect 1 0 25 13)(font "Arial" (font_size 6)))
	(text "inst45" (rect 3 37 43 52)(font "Arial" ))
	(port
		(pt 0 32)
		(input)
		(text "IN2" (rect 2 23 26 39)(font "Courier New" (bold))(invisible))
		(text "IN2" (rect 2 23 26 39)(font "Courier New" (bold))(invisible))
		(line (pt 0 32)(pt 15 32)(line_width 1))
	)
	(port
		(pt 0 16)
		(input)
		(text "IN1" (rect 2 7 26 23)(font "Courier New" (bold))(invisible))
		(text "IN1" (rect 2 7 26 23)(font "Courier New" (bold))(invisible))
		(line (pt 0 16)(pt 15 16)(line_width 1))
	)
	(port
		(pt 64 24)
		(output)
		(text "OUT" (rect 48 15 72 31)(font "Courier New" (bold))(invisible))
		(text "OUT" (rect 48 15 72 31)(font "Courier New" (bold))(invisible))
		(line (pt 48 24)(pt 64 24)(line_width 1))
	)
	(drawing
		(line (pt 14 36)(pt 25 36)(line_width 1))
		(line (pt 14 13)(pt 25 13)(line_width 1))
		(arc (pt 7 29)(pt 7 19)(rect -14 8 19 41)(line_width 1))
		(arc (pt 49 24)(pt 25 13)(rect -6 13 57 76)(line_width 1))
		(arc (pt 25 35)(pt 49 24)(rect -6 -27 57 36)(line_width 1))
	)
)
(symbol
	(rect 1192 232 1256 312)
	(text "AND4" (rect 1 0 32 13)(font "Arial" (font_size 6)))
	(text "inst15" (rect 3 69 43 84)(font "Arial" ))
	(port
		(pt 0 16)
		(input)
		(text "IN1" (rect 2 7 26 23)(font "Courier New" (bold))(invisible))
		(text "IN1" (rect 2 7 26 23)(font "Courier New" (bold))(invisible))
		(line (pt 0 16)(pt 18 16)(line_width 1))
	)
	(port
		(pt 0 32)
		(input)
		(text "IN2" (rect 2 23 26 39)(font "Courier New" (bold))(invisible))
		(text "IN2" (rect 2 23 26 39)(font "Courier New" (bold))(invisible))
		(line (pt 0 32)(pt 18 32)(line_width 1))
	)
	(port
		(pt 0 48)
		(input)
		(text "IN3" (rect 2 39 26 55)(font "Courier New" (bold))(invisible))
		(text "IN3" (rect 2 39 26 55)(font "Courier New" (bold))(invisible))
		(line (pt 0 48)(pt 18 48)(line_width 1))
	)
	(port
		(pt 0 64)
		(input)
		(text "IN4" (rect 2 55 26 71)(font "Courier New" (bold))(invisible))
		(text "IN4" (rect 2 55 26 71)(font "Courier New" (bold))(invisible))
		(line (pt 0 64)(pt 18 64)(line_width 1))
	)
	(port
		(pt 64 40)
		(output)
		(text "OUT" (rect 48 31 72 47)(font "Courier New" (bold))(invisible))
		(text "OUT" (rect 48 31 72 47)(font "Courier New" (bold))(invisible))
		(line (pt 46 40)(pt 64 40)(line_width 1))
	)
	(drawing
		(line (pt 18 28)(pt 34 28)(line_width 1))
		(line (pt 18 52)(pt 18 28)(line_width 1))
		(line (pt 18 67)(pt 18 13)(line_width 1))
		(line (pt 34 53)(pt 18 53)(line_width 1))
		(arc (pt 34 52)(pt 34 28)(rect 22 28 47 53)(line_width 1))
	)
)
(symbol
	(rect 1144 248 1192 280)
	(text "NOT" (rect 1 0 26 13)(font "Arial" (font_size 6)))
	(text "inst16" (rect 3 21 43 36)(font "Arial" ))
	(port
		(pt 0 16)
		(input)
		(text "IN" (rect 2 7 18 23)(font "Courier New" (bold))(invisible))
		(text "IN" (rect 2 7 18 23)(font "Courier New" (bold))(invisible))
		(line (pt 0 16)(pt 13 16)(line_width 1))
	)
	(port
		(pt 48 16)
		(output)
		(text "OUT" (rect 32 7 56 23)(font "Courier New" (bold))(invisible))
		(text "OUT" (rect 32 7 56 23)(font "Courier New" (bold))(invisible))
		(line (pt 39 16)(pt 48 16)(line_width 1))
	)
	(drawing
		(line (pt 13 25)(pt 13 7)(line_width 1))
		(line (pt 13 7)(pt 31 16)(line_width 1))
		(line (pt 13 25)(pt 31 16)(line_width 1))
		(circle (rect 31 12 39 20)(line_width 1))
	)
)
(symbol
	(rect 1144 264 1192 296)
	(text "NOT" (rect 1 0 26 13)(font "Arial" (font_size 6)))
	(text "inst17" (rect 3 21 43 36)(font "Arial" ))
	(port
		(pt 0 16)
		(input)
		(text "IN" (rect 2 7 18 23)(font "Courier New" (bold))(invisible))
		(text "IN" (rect 2 7 18 23)(font "Courier New" (bold))(invisible))
		(line (pt 0 16)(pt 13 16)(line_width 1))
	)
	(port
		(pt 48 16)
		(output)
		(text "OUT" (rect 32 7 56 23)(font "Courier New" (bold))(invisible))
		(text "OUT" (rect 32 7 56 23)(font "Courier New" (bold))(invisible))
		(line (pt 39 16)(pt 48 16)(line_width 1))
	)
	(drawing
		(line (pt 13 25)(pt 13 7)(line_width 1))
		(line (pt 13 7)(pt 31 16)(line_width 1))
		(line (pt 13 25)(pt 31 16)(line_width 1))
		(circle (rect 31 12 39 20)(line_width 1))
	)
)
(symbol
	(rect 1528 232 1592 312)
	(text "AND4" (rect 1 0 32 13)(font "Arial" (font_size 6)))
	(text "inst11" (rect 3 69 43 84)(font "Arial" ))
	(port
		(pt 0 16)
		(input)
		(text "IN1" (rect 2 7 26 23)(font "Courier New" (bold))(invisible))
		(text "IN1" (rect 2 7 26 23)(font "Courier New" (bold))(invisible))
		(line (pt 0 16)(pt 18 16)(line_width 1))
	)
	(port
		(pt 0 32)
		(input)
		(text "IN2" (rect 2 23 26 39)(font "Courier New" (bold))(invisible))
		(text "IN2" (rect 2 23 26 39)(font "Courier New" (bold))(invisible))
		(line (pt 0 32)(pt 18 32)(line_width 1))
	)
	(port
		(pt 0 48)
		(input)
		(text "IN3" (rect 2 39 26 55)(font "Courier New" (bold))(invisible))
		(text "IN3" (rect 2 39 26 55)(font "Courier New" (bold))(invisible))
		(line (pt 0 48)(pt 18 48)(line_width 1))
	)
	(port
		(pt 0 64)
		(input)
		(text "IN4" (rect 2 55 26 71)(font "Courier New" (bold))(invisible))
		(text "IN4" (rect 2 55 26 71)(font "Courier New" (bold))(invisible))
		(line (pt 0 64)(pt 18 64)(line_width 1))
	)
	(port
		(pt 64 40)
		(output)
		(text "OUT" (rect 48 31 72 47)(font "Courier New" (bold))(invisible))
		(text "OUT" (rect 48 31 72 47)(font "Courier New" (bold))(invisible))
		(line (pt 46 40)(pt 64 40)(line_width 1))
	)
	(drawing
		(line (pt 18 28)(pt 34 28)(line_width 1))
		(line (pt 18 52)(pt 18 28)(line_width 1))
		(line (pt 18 67)(pt 18 13)(line_width 1))
		(line (pt 34 53)(pt 18 53)(line_width 1))
		(arc (pt 34 52)(pt 34 28)(rect 22 28 47 53)(line_width 1))
	)
)
(symbol
	(rect 1480 248 1528 280)
	(text "NOT" (rect 1 0 26 13)(font "Arial" (font_size 6)))
	(text "inst12" (rect 3 21 43 36)(font "Arial" ))
	(port
		(pt 0 16)
		(input)
		(text "IN" (rect 2 7 18 23)(font "Courier New" (bold))(invisible))
		(text "IN" (rect 2 7 18 23)(font "Courier New" (bold))(invisible))
		(line (pt 0 16)(pt 13 16)(line_width 1))
	)
	(port
		(pt 48 16)
		(output)
		(text "OUT" (rect 32 7 56 23)(font "Courier New" (bold))(invisible))
		(text "OUT" (rect 32 7 56 23)(font "Courier New" (bold))(invisible))
		(line (pt 39 16)(pt 48 16)(line_width 1))
	)
	(drawing
		(line (pt 13 25)(pt 13 7)(line_width 1))
		(line (pt 13 7)(pt 31 16)(line_width 1))
		(line (pt 13 25)(pt 31 16)(line_width 1))
		(circle (rect 31 12 39 20)(line_width 1))
	)
)
(symbol
	(rect 1480 264 1528 296)
	(text "NOT" (rect 1 0 26 13)(font "Arial" (font_size 6)))
	(text "inst13" (rect 3 21 43 36)(font "Arial" ))
	(port
		(pt 0 16)
		(input)
		(text "IN" (rect 2 7 18 23)(font "Courier New" (bold))(invisible))
		(text "IN" (rect 2 7 18 23)(font "Courier New" (bold))(invisible))
		(line (pt 0 16)(pt 13 16)(line_width 1))
	)
	(port
		(pt 48 16)
		(output)
		(text "OUT" (rect 32 7 56 23)(font "Courier New" (bold))(invisible))
		(text "OUT" (rect 32 7 56 23)(font "Courier New" (bold))(invisible))
		(line (pt 39 16)(pt 48 16)(line_width 1))
	)
	(drawing
		(line (pt 13 25)(pt 13 7)(line_width 1))
		(line (pt 13 7)(pt 31 16)(line_width 1))
		(line (pt 13 25)(pt 31 16)(line_width 1))
		(circle (rect 31 12 39 20)(line_width 1))
	)
)
(symbol
	(rect 856 232 920 312)
	(text "AND4" (rect 1 0 32 13)(font "Arial" (font_size 6)))
	(text "inst18" (rect 3 69 43 84)(font "Arial" ))
	(port
		(pt 0 16)
		(input)
		(text "IN1" (rect 2 7 26 23)(font "Courier New" (bold))(invisible))
		(text "IN1" (rect 2 7 26 23)(font "Courier New" (bold))(invisible))
		(line (pt 0 16)(pt 18 16)(line_width 1))
	)
	(port
		(pt 0 32)
		(input)
		(text "IN2" (rect 2 23 26 39)(font "Courier New" (bold))(invisible))
		(text "IN2" (rect 2 23 26 39)(font "Courier New" (bold))(invisible))
		(line (pt 0 32)(pt 18 32)(line_width 1))
	)
	(port
		(pt 0 48)
		(input)
		(text "IN3" (rect 2 39 26 55)(font "Courier New" (bold))(invisible))
		(text "IN3" (rect 2 39 26 55)(font "Courier New" (bold))(invisible))
		(line (pt 0 48)(pt 18 48)(line_width 1))
	)
	(port
		(pt 0 64)
		(input)
		(text "IN4" (rect 2 55 26 71)(font "Courier New" (bold))(invisible))
		(text "IN4" (rect 2 55 26 71)(font "Courier New" (bold))(invisible))
		(line (pt 0 64)(pt 18 64)(line_width 1))
	)
	(port
		(pt 64 40)
		(output)
		(text "OUT" (rect 48 31 72 47)(font "Courier New" (bold))(invisible))
		(text "OUT" (rect 48 31 72 47)(font "Courier New" (bold))(invisible))
		(line (pt 46 40)(pt 64 40)(line_width 1))
	)
	(drawing
		(line (pt 18 28)(pt 34 28)(line_width 1))
		(line (pt 18 52)(pt 18 28)(line_width 1))
		(line (pt 18 67)(pt 18 13)(line_width 1))
		(line (pt 34 53)(pt 18 53)(line_width 1))
		(arc (pt 34 52)(pt 34 28)(rect 22 28 47 53)(line_width 1))
	)
)
(symbol
	(rect 808 248 856 280)
	(text "NOT" (rect 1 0 26 13)(font "Arial" (font_size 6)))
	(text "inst19" (rect 3 21 43 36)(font "Arial" ))
	(port
		(pt 0 16)
		(input)
		(text "IN" (rect 2 7 18 23)(font "Courier New" (bold))(invisible))
		(text "IN" (rect 2 7 18 23)(font "Courier New" (bold))(invisible))
		(line (pt 0 16)(pt 13 16)(line_width 1))
	)
	(port
		(pt 48 16)
		(output)
		(text "OUT" (rect 32 7 56 23)(font "Courier New" (bold))(invisible))
		(text "OUT" (rect 32 7 56 23)(font "Courier New" (bold))(invisible))
		(line (pt 39 16)(pt 48 16)(line_width 1))
	)
	(drawing
		(line (pt 13 25)(pt 13 7)(line_width 1))
		(line (pt 13 7)(pt 31 16)(line_width 1))
		(line (pt 13 25)(pt 31 16)(line_width 1))
		(circle (rect 31 12 39 20)(line_width 1))
	)
)
(symbol
	(rect 808 264 856 296)
	(text "NOT" (rect 1 0 26 13)(font "Arial" (font_size 6)))
	(text "inst20" (rect 3 21 43 36)(font "Arial" ))
	(port
		(pt 0 16)
		(input)
		(text "IN" (rect 2 7 18 23)(font "Courier New" (bold))(invisible))
		(text "IN" (rect 2 7 18 23)(font "Courier New" (bold))(invisible))
		(line (pt 0 16)(pt 13 16)(line_width 1))
	)
	(port
		(pt 48 16)
		(output)
		(text "OUT" (rect 32 7 56 23)(font "Courier New" (bold))(invisible))
		(text "OUT" (rect 32 7 56 23)(font "Courier New" (bold))(invisible))
		(line (pt 39 16)(pt 48 16)(line_width 1))
	)
	(drawing
		(line (pt 13 25)(pt 13 7)(line_width 1))
		(line (pt 13 7)(pt 31 16)(line_width 1))
		(line (pt 13 25)(pt 31 16)(line_width 1))
		(circle (rect 31 12 39 20)(line_width 1))
	)
)
(symbol
	(rect 520 232 584 312)
	(text "AND4" (rect 1 0 32 13)(font "Arial" (font_size 6)))
	(text "inst21" (rect 3 69 43 84)(font "Arial" ))
	(port
		(pt 0 16)
		(input)
		(text "IN1" (rect 2 7 26 23)(font "Courier New" (bold))(invisible))
		(text "IN1" (rect 2 7 26 23)(font "Courier New" (bold))(invisible))
		(line (pt 0 16)(pt 18 16)(line_width 1))
	)
	(port
		(pt 0 32)
		(input)
		(text "IN2" (rect 2 23 26 39)(font "Courier New" (bold))(invisible))
		(text "IN2" (rect 2 23 26 39)(font "Courier New" (bold))(invisible))
		(line (pt 0 32)(pt 18 32)(line_width 1))
	)
	(port
		(pt 0 48)
		(input)
		(text "IN3" (rect 2 39 26 55)(font "Courier New" (bold))(invisible))
		(text "IN3" (rect 2 39 26 55)(font "Courier New" (bold))(invisible))
		(line (pt 0 48)(pt 18 48)(line_width 1))
	)
	(port
		(pt 0 64)
		(input)
		(text "IN4" (rect 2 55 26 71)(font "Courier New" (bold))(invisible))
		(text "IN4" (rect 2 55 26 71)(font "Courier New" (bold))(invisible))
		(line (pt 0 64)(pt 18 64)(line_width 1))
	)
	(port
		(pt 64 40)
		(output)
		(text "OUT" (rect 48 31 72 47)(font "Courier New" (bold))(invisible))
		(text "OUT" (rect 48 31 72 47)(font "Courier New" (bold))(invisible))
		(line (pt 46 40)(pt 64 40)(line_width 1))
	)
	(drawing
		(line (pt 18 28)(pt 34 28)(line_width 1))
		(line (pt 18 52)(pt 18 28)(line_width 1))
		(line (pt 18 67)(pt 18 13)(line_width 1))
		(line (pt 34 53)(pt 18 53)(line_width 1))
		(arc (pt 34 52)(pt 34 28)(rect 22 28 47 53)(line_width 1))
	)
)
(symbol
	(rect 472 248 520 280)
	(text "NOT" (rect 1 0 26 13)(font "Arial" (font_size 6)))
	(text "inst22" (rect 3 21 43 36)(font "Arial" ))
	(port
		(pt 0 16)
		(input)
		(text "IN" (rect 2 7 18 23)(font "Courier New" (bold))(invisible))
		(text "IN" (rect 2 7 18 23)(font "Courier New" (bold))(invisible))
		(line (pt 0 16)(pt 13 16)(line_width 1))
	)
	(port
		(pt 48 16)
		(output)
		(text "OUT" (rect 32 7 56 23)(font "Courier New" (bold))(invisible))
		(text "OUT" (rect 32 7 56 23)(font "Courier New" (bold))(invisible))
		(line (pt 39 16)(pt 48 16)(line_width 1))
	)
	(drawing
		(line (pt 13 25)(pt 13 7)(line_width 1))
		(line (pt 13 7)(pt 31 16)(line_width 1))
		(line (pt 13 25)(pt 31 16)(line_width 1))
		(circle (rect 31 12 39 20)(line_width 1))
	)
)
(symbol
	(rect 320 504 440 664)
	(text "7448" (rect 45 0 87 19)(font "Arial" (font_size 10)))
	(text "inst50" (rect 3 149 36 162)(font "Arial" (font_size 6)))
	(port
		(pt 0 24)
		(input)
		(text "A" (rect 21 17 31 33)(font "Arial" (font_size 8)))
		(text "A" (rect 21 17 31 33)(font "Arial" (font_size 8)))
		(line (pt 0 24)(pt 16 24)(line_width 1))
	)
	(port
		(pt 0 56)
		(input)
		(text "C" (rect 21 49 31 65)(font "Arial" (font_size 8)))
		(text "C" (rect 21 49 31 65)(font "Arial" (font_size 8)))
		(line (pt 0 56)(pt 16 56)(line_width 1))
	)
	(port
		(pt 0 72)
		(input)
		(text "D" (rect 21 65 31 81)(font "Arial" (font_size 8)))
		(text "D" (rect 21 65 31 81)(font "Arial" (font_size 8)))
		(line (pt 0 72)(pt 16 72)(line_width 1))
	)
	(port
		(pt 0 40)
		(input)
		(text "B" (rect 21 33 31 49)(font "Arial" (font_size 8)))
		(text "B" (rect 21 33 31 49)(font "Arial" (font_size 8)))
		(line (pt 0 40)(pt 16 40)(line_width 1))
	)
	(port
		(pt 0 104)
		(input)
		(text "RBIN" (rect 21 97 56 113)(font "Arial" (font_size 8)))
		(text "RBIN" (rect 21 97 56 113)(font "Arial" (font_size 8)))
		(line (pt 0 104)(pt 8 104)(line_width 1))
	)
	(port
		(pt 0 120)
		(input)
		(text "BIN" (rect 21 113 45 129)(font "Arial" (font_size 8)))
		(text "BIN" (rect 21 113 45 129)(font "Arial" (font_size 8)))
		(line (pt 0 120)(pt 8 120)(line_width 1))
	)
	(port
		(pt 0 88)
		(input)
		(text "LTN" (rect 21 81 48 97)(font "Arial" (font_size 8)))
		(text "LTN" (rect 21 81 48 97)(font "Arial" (font_size 8)))
		(line (pt 0 88)(pt 8 88)(line_width 1))
	)
	(port
		(pt 120 56)
		(output)
		(text "OC" (rect 83 48 105 64)(font "Arial" (font_size 8)))
		(text "OC" (rect 83 48 105 64)(font "Arial" (font_size 8)))
		(line (pt 104 56)(pt 120 56)(line_width 1))
	)
	(port
		(pt 120 88)
		(output)
		(text "OE" (rect 83 80 105 96)(font "Arial" (font_size 8)))
		(text "OE" (rect 83 80 105 96)(font "Arial" (font_size 8)))
		(line (pt 104 88)(pt 120 88)(line_width 1))
	)
	(port
		(pt 120 72)
		(output)
		(text "OD" (rect 83 64 105 80)(font "Arial" (font_size 8)))
		(text "OD" (rect 83 64 105 80)(font "Arial" (font_size 8)))
		(line (pt 104 72)(pt 120 72)(line_width 1))
	)
	(port
		(pt 120 104)
		(output)
		(text "OF" (rect 83 96 104 112)(font "Arial" (font_size 8)))
		(text "OF" (rect 83 96 104 112)(font "Arial" (font_size 8)))
		(line (pt 104 104)(pt 120 104)(line_width 1))
	)
	(port
		(pt 120 120)
		(output)
		(text "OG" (rect 83 112 106 128)(font "Arial" (font_size 8)))
		(text "OG" (rect 83 112 106 128)(font "Arial" (font_size 8)))
		(line (pt 104 120)(pt 120 120)(line_width 1))
	)
	(port
		(pt 120 40)
		(output)
		(text "OB" (rect 83 32 105 48)(font "Arial" (font_size 8)))
		(text "OB" (rect 83 32 105 48)(font "Arial" (font_size 8)))
		(line (pt 104 40)(pt 120 40)(line_width 1))
	)
	(port
		(pt 120 24)
		(output)
		(text "OA" (rect 83 16 105 32)(font "Arial" (font_size 8)))
		(text "OA" (rect 83 16 105 32)(font "Arial" (font_size 8)))
		(line (pt 104 24)(pt 120 24)(line_width 1))
	)
	(port
		(pt 120 136)
		(output)
		(text "RBON" (rect 67 128 110 144)(font "Arial" (font_size 8)))
		(text "RBON" (rect 67 128 110 144)(font "Arial" (font_size 8)))
		(line (pt 112 136)(pt 120 136)(line_width 1))
	)
	(drawing
		(text "BCD TO 7SEG" (rect 29 145 131 161)(font "Arial" (font_size 8)))
		(line (pt 16 16)(pt 104 16)(line_width 1))
		(line (pt 16 144)(pt 104 144)(line_width 1))
		(line (pt 104 144)(pt 104 16)(line_width 1))
		(line (pt 16 144)(pt 16 16)(line_width 1))
		(circle (rect 104 132 112 140)(line_width 1))
		(circle (rect 8 116 16 124)(line_width 1))
		(circle (rect 8 100 16 108)(line_width 1))
		(circle (rect 8 84 16 92)(line_width 1))
	)
)
(symbol
	(rect 248 592 264 624)
	(text "VCC" (rect 0 1 13 25)(font "Arial" (font_size 6))(vertical))
	(text "inst52" (rect 5 -11 20 29)(font "Arial" )(vertical)(invisible))
	(port
		(pt 16 16)
		(output)
		(text "1" (rect 19 7 27 23)(font "Courier New" (bold))(invisible))
		(text "1" (rect 7 5 23 13)(font "Courier New" (bold))(vertical)(invisible))
		(line (pt 16 16)(pt 8 16)(line_width 1))
	)
	(drawing
		(line (pt 8 24)(pt 8 8)(line_width 1))
	)
	(rotate90)
)
(symbol
	(rect 704 504 824 664)
	(text "7448" (rect 45 0 87 19)(font "Arial" (font_size 10)))
	(text "inst51" (rect 3 149 36 162)(font "Arial" (font_size 6)))
	(port
		(pt 0 24)
		(input)
		(text "A" (rect 21 17 31 33)(font "Arial" (font_size 8)))
		(text "A" (rect 21 17 31 33)(font "Arial" (font_size 8)))
		(line (pt 0 24)(pt 16 24)(line_width 1))
	)
	(port
		(pt 0 56)
		(input)
		(text "C" (rect 21 49 31 65)(font "Arial" (font_size 8)))
		(text "C" (rect 21 49 31 65)(font "Arial" (font_size 8)))
		(line (pt 0 56)(pt 16 56)(line_width 1))
	)
	(port
		(pt 0 72)
		(input)
		(text "D" (rect 21 65 31 81)(font "Arial" (font_size 8)))
		(text "D" (rect 21 65 31 81)(font "Arial" (font_size 8)))
		(line (pt 0 72)(pt 16 72)(line_width 1))
	)
	(port
		(pt 0 40)
		(input)
		(text "B" (rect 21 33 31 49)(font "Arial" (font_size 8)))
		(text "B" (rect 21 33 31 49)(font "Arial" (font_size 8)))
		(line (pt 0 40)(pt 16 40)(line_width 1))
	)
	(port
		(pt 0 104)
		(input)
		(text "RBIN" (rect 21 97 56 113)(font "Arial" (font_size 8)))
		(text "RBIN" (rect 21 97 56 113)(font "Arial" (font_size 8)))
		(line (pt 0 104)(pt 8 104)(line_width 1))
	)
	(port
		(pt 0 120)
		(input)
		(text "BIN" (rect 21 113 45 129)(font "Arial" (font_size 8)))
		(text "BIN" (rect 21 113 45 129)(font "Arial" (font_size 8)))
		(line (pt 0 120)(pt 8 120)(line_width 1))
	)
	(port
		(pt 0 88)
		(input)
		(text "LTN" (rect 21 81 48 97)(font "Arial" (font_size 8)))
		(text "LTN" (rect 21 81 48 97)(font "Arial" (font_size 8)))
		(line (pt 0 88)(pt 8 88)(line_width 1))
	)
	(port
		(pt 120 56)
		(output)
		(text "OC" (rect 83 48 105 64)(font "Arial" (font_size 8)))
		(text "OC" (rect 83 48 105 64)(font "Arial" (font_size 8)))
		(line (pt 104 56)(pt 120 56)(line_width 1))
	)
	(port
		(pt 120 88)
		(output)
		(text "OE" (rect 83 80 105 96)(font "Arial" (font_size 8)))
		(text "OE" (rect 83 80 105 96)(font "Arial" (font_size 8)))
		(line (pt 104 88)(pt 120 88)(line_width 1))
	)
	(port
		(pt 120 72)
		(output)
		(text "OD" (rect 83 64 105 80)(font "Arial" (font_size 8)))
		(text "OD" (rect 83 64 105 80)(font "Arial" (font_size 8)))
		(line (pt 104 72)(pt 120 72)(line_width 1))
	)
	(port
		(pt 120 104)
		(output)
		(text "OF" (rect 83 96 104 112)(font "Arial" (font_size 8)))
		(text "OF" (rect 83 96 104 112)(font "Arial" (font_size 8)))
		(line (pt 104 104)(pt 120 104)(line_width 1))
	)
	(port
		(pt 120 120)
		(output)
		(text "OG" (rect 83 112 106 128)(font "Arial" (font_size 8)))
		(text "OG" (rect 83 112 106 128)(font "Arial" (font_size 8)))
		(line (pt 104 120)(pt 120 120)(line_width 1))
	)
	(port
		(pt 120 40)
		(output)
		(text "OB" (rect 83 32 105 48)(font "Arial" (font_size 8)))
		(text "OB" (rect 83 32 105 48)(font "Arial" (font_size 8)))
		(line (pt 104 40)(pt 120 40)(line_width 1))
	)
	(port
		(pt 120 24)
		(output)
		(text "OA" (rect 83 16 105 32)(font "Arial" (font_size 8)))
		(text "OA" (rect 83 16 105 32)(font "Arial" (font_size 8)))
		(line (pt 104 24)(pt 120 24)(line_width 1))
	)
	(port
		(pt 120 136)
		(output)
		(text "RBON" (rect 67 128 110 144)(font "Arial" (font_size 8)))
		(text "RBON" (rect 67 128 110 144)(font "Arial" (font_size 8)))
		(line (pt 112 136)(pt 120 136)(line_width 1))
	)
	(drawing
		(text "BCD TO 7SEG" (rect 29 145 131 161)(font "Arial" (font_size 8)))
		(line (pt 16 16)(pt 104 16)(line_width 1))
		(line (pt 16 144)(pt 104 144)(line_width 1))
		(line (pt 104 144)(pt 104 16)(line_width 1))
		(line (pt 16 144)(pt 16 16)(line_width 1))
		(circle (rect 104 132 112 140)(line_width 1))
		(circle (rect 8 116 16 124)(line_width 1))
		(circle (rect 8 100 16 108)(line_width 1))
		(circle (rect 8 84 16 92)(line_width 1))
	)
)
(symbol
	(rect 632 592 648 624)
	(text "VCC" (rect 0 1 13 25)(font "Arial" (font_size 6))(vertical))
	(text "inst53" (rect 5 -11 20 29)(font "Arial" )(vertical)(invisible))
	(port
		(pt 16 16)
		(output)
		(text "1" (rect 19 7 27 23)(font "Courier New" (bold))(invisible))
		(text "1" (rect 7 5 23 13)(font "Courier New" (bold))(vertical)(invisible))
		(line (pt 16 16)(pt 8 16)(line_width 1))
	)
	(drawing
		(line (pt 8 24)(pt 8 8)(line_width 1))
	)
	(rotate90)
)
(symbol
	(rect 1088 504 1208 664)
	(text "7448" (rect 45 0 87 19)(font "Arial" (font_size 10)))
	(text "inst54" (rect 3 149 36 162)(font "Arial" (font_size 6)))
	(port
		(pt 0 24)
		(input)
		(text "A" (rect 21 17 31 33)(font "Arial" (font_size 8)))
		(text "A" (rect 21 17 31 33)(font "Arial" (font_size 8)))
		(line (pt 0 24)(pt 16 24)(line_width 1))
	)
	(port
		(pt 0 56)
		(input)
		(text "C" (rect 21 49 31 65)(font "Arial" (font_size 8)))
		(text "C" (rect 21 49 31 65)(font "Arial" (font_size 8)))
		(line (pt 0 56)(pt 16 56)(line_width 1))
	)
	(port
		(pt 0 72)
		(input)
		(text "D" (rect 21 65 31 81)(font "Arial" (font_size 8)))
		(text "D" (rect 21 65 31 81)(font "Arial" (font_size 8)))
		(line (pt 0 72)(pt 16 72)(line_width 1))
	)
	(port
		(pt 0 40)
		(input)
		(text "B" (rect 21 33 31 49)(font "Arial" (font_size 8)))
		(text "B" (rect 21 33 31 49)(font "Arial" (font_size 8)))
		(line (pt 0 40)(pt 16 40)(line_width 1))
	)
	(port
		(pt 0 104)
		(input)
		(text "RBIN" (rect 21 97 56 113)(font "Arial" (font_size 8)))
		(text "RBIN" (rect 21 97 56 113)(font "Arial" (font_size 8)))
		(line (pt 0 104)(pt 8 104)(line_width 1))
	)
	(port
		(pt 0 120)
		(input)
		(text "BIN" (rect 21 113 45 129)(font "Arial" (font_size 8)))
		(text "BIN" (rect 21 113 45 129)(font "Arial" (font_size 8)))
		(line (pt 0 120)(pt 8 120)(line_width 1))
	)
	(port
		(pt 0 88)
		(input)
		(text "LTN" (rect 21 81 48 97)(font "Arial" (font_size 8)))
		(text "LTN" (rect 21 81 48 97)(font "Arial" (font_size 8)))
		(line (pt 0 88)(pt 8 88)(line_width 1))
	)
	(port
		(pt 120 56)
		(output)
		(text "OC" (rect 83 48 105 64)(font "Arial" (font_size 8)))
		(text "OC" (rect 83 48 105 64)(font "Arial" (font_size 8)))
		(line (pt 104 56)(pt 120 56)(line_width 1))
	)
	(port
		(pt 120 88)
		(output)
		(text "OE" (rect 83 80 105 96)(font "Arial" (font_size 8)))
		(text "OE" (rect 83 80 105 96)(font "Arial" (font_size 8)))
		(line (pt 104 88)(pt 120 88)(line_width 1))
	)
	(port
		(pt 120 72)
		(output)
		(text "OD" (rect 83 64 105 80)(font "Arial" (font_size 8)))
		(text "OD" (rect 83 64 105 80)(font "Arial" (font_size 8)))
		(line (pt 104 72)(pt 120 72)(line_width 1))
	)
	(port
		(pt 120 104)
		(output)
		(text "OF" (rect 83 96 104 112)(font "Arial" (font_size 8)))
		(text "OF" (rect 83 96 104 112)(font "Arial" (font_size 8)))
		(line (pt 104 104)(pt 120 104)(line_width 1))
	)
	(port
		(pt 120 120)
		(output)
		(text "OG" (rect 83 112 106 128)(font "Arial" (font_size 8)))
		(text "OG" (rect 83 112 106 128)(font "Arial" (font_size 8)))
		(line (pt 104 120)(pt 120 120)(line_width 1))
	)
	(port
		(pt 120 40)
		(output)
		(text "OB" (rect 83 32 105 48)(font "Arial" (font_size 8)))
		(text "OB" (rect 83 32 105 48)(font "Arial" (font_size 8)))
		(line (pt 104 40)(pt 120 40)(line_width 1))
	)
	(port
		(pt 120 24)
		(output)
		(text "OA" (rect 83 16 105 32)(font "Arial" (font_size 8)))
		(text "OA" (rect 83 16 105 32)(font "Arial" (font_size 8)))
		(line (pt 104 24)(pt 120 24)(line_width 1))
	)
	(port
		(pt 120 136)
		(output)
		(text "RBON" (rect 67 128 110 144)(font "Arial" (font_size 8)))
		(text "RBON" (rect 67 128 110 144)(font "Arial" (font_size 8)))
		(line (pt 112 136)(pt 120 136)(line_width 1))
	)
	(drawing
		(text "BCD TO 7SEG" (rect 29 145 131 161)(font "Arial" (font_size 8)))
		(line (pt 16 16)(pt 104 16)(line_width 1))
		(line (pt 16 144)(pt 104 144)(line_width 1))
		(line (pt 104 144)(pt 104 16)(line_width 1))
		(line (pt 16 144)(pt 16 16)(line_width 1))
		(circle (rect 104 132 112 140)(line_width 1))
		(circle (rect 8 116 16 124)(line_width 1))
		(circle (rect 8 100 16 108)(line_width 1))
		(circle (rect 8 84 16 92)(line_width 1))
	)
)
(symbol
	(rect 1016 592 1032 624)
	(text "VCC" (rect 0 1 13 25)(font "Arial" (font_size 6))(vertical))
	(text "inst55" (rect 5 -11 20 29)(font "Arial" )(vertical)(invisible))
	(port
		(pt 16 16)
		(output)
		(text "1" (rect 19 7 27 23)(font "Courier New" (bold))(invisible))
		(text "1" (rect 7 5 23 13)(font "Courier New" (bold))(vertical)(invisible))
		(line (pt 16 16)(pt 8 16)(line_width 1))
	)
	(drawing
		(line (pt 8 24)(pt 8 8)(line_width 1))
	)
	(rotate90)
)
(symbol
	(rect 1472 504 1592 664)
	(text "7448" (rect 45 0 87 19)(font "Arial" (font_size 10)))
	(text "inst56" (rect 3 149 36 162)(font "Arial" (font_size 6)))
	(port
		(pt 0 24)
		(input)
		(text "A" (rect 21 17 31 33)(font "Arial" (font_size 8)))
		(text "A" (rect 21 17 31 33)(font "Arial" (font_size 8)))
		(line (pt 0 24)(pt 16 24)(line_width 1))
	)
	(port
		(pt 0 56)
		(input)
		(text "C" (rect 21 49 31 65)(font "Arial" (font_size 8)))
		(text "C" (rect 21 49 31 65)(font "Arial" (font_size 8)))
		(line (pt 0 56)(pt 16 56)(line_width 1))
	)
	(port
		(pt 0 72)
		(input)
		(text "D" (rect 21 65 31 81)(font "Arial" (font_size 8)))
		(text "D" (rect 21 65 31 81)(font "Arial" (font_size 8)))
		(line (pt 0 72)(pt 16 72)(line_width 1))
	)
	(port
		(pt 0 40)
		(input)
		(text "B" (rect 21 33 31 49)(font "Arial" (font_size 8)))
		(text "B" (rect 21 33 31 49)(font "Arial" (font_size 8)))
		(line (pt 0 40)(pt 16 40)(line_width 1))
	)
	(port
		(pt 0 104)
		(input)
		(text "RBIN" (rect 21 97 56 113)(font "Arial" (font_size 8)))
		(text "RBIN" (rect 21 97 56 113)(font "Arial" (font_size 8)))
		(line (pt 0 104)(pt 8 104)(line_width 1))
	)
	(port
		(pt 0 120)
		(input)
		(text "BIN" (rect 21 113 45 129)(font "Arial" (font_size 8)))
		(text "BIN" (rect 21 113 45 129)(font "Arial" (font_size 8)))
		(line (pt 0 120)(pt 8 120)(line_width 1))
	)
	(port
		(pt 0 88)
		(input)
		(text "LTN" (rect 21 81 48 97)(font "Arial" (font_size 8)))
		(text "LTN" (rect 21 81 48 97)(font "Arial" (font_size 8)))
		(line (pt 0 88)(pt 8 88)(line_width 1))
	)
	(port
		(pt 120 56)
		(output)
		(text "OC" (rect 83 48 105 64)(font "Arial" (font_size 8)))
		(text "OC" (rect 83 48 105 64)(font "Arial" (font_size 8)))
		(line (pt 104 56)(pt 120 56)(line_width 1))
	)
	(port
		(pt 120 88)
		(output)
		(text "OE" (rect 83 80 105 96)(font "Arial" (font_size 8)))
		(text "OE" (rect 83 80 105 96)(font "Arial" (font_size 8)))
		(line (pt 104 88)(pt 120 88)(line_width 1))
	)
	(port
		(pt 120 72)
		(output)
		(text "OD" (rect 83 64 105 80)(font "Arial" (font_size 8)))
		(text "OD" (rect 83 64 105 80)(font "Arial" (font_size 8)))
		(line (pt 104 72)(pt 120 72)(line_width 1))
	)
	(port
		(pt 120 104)
		(output)
		(text "OF" (rect 83 96 104 112)(font "Arial" (font_size 8)))
		(text "OF" (rect 83 96 104 112)(font "Arial" (font_size 8)))
		(line (pt 104 104)(pt 120 104)(line_width 1))
	)
	(port
		(pt 120 120)
		(output)
		(text "OG" (rect 83 112 106 128)(font "Arial" (font_size 8)))
		(text "OG" (rect 83 112 106 128)(font "Arial" (font_size 8)))
		(line (pt 104 120)(pt 120 120)(line_width 1))
	)
	(port
		(pt 120 40)
		(output)
		(text "OB" (rect 83 32 105 48)(font "Arial" (font_size 8)))
		(text "OB" (rect 83 32 105 48)(font "Arial" (font_size 8)))
		(line (pt 104 40)(pt 120 40)(line_width 1))
	)
	(port
		(pt 120 24)
		(output)
		(text "OA" (rect 83 16 105 32)(font "Arial" (font_size 8)))
		(text "OA" (rect 83 16 105 32)(font "Arial" (font_size 8)))
		(line (pt 104 24)(pt 120 24)(line_width 1))
	)
	(port
		(pt 120 136)
		(output)
		(text "RBON" (rect 67 128 110 144)(font "Arial" (font_size 8)))
		(text "RBON" (rect 67 128 110 144)(font "Arial" (font_size 8)))
		(line (pt 112 136)(pt 120 136)(line_width 1))
	)
	(drawing
		(text "BCD TO 7SEG" (rect 29 145 131 161)(font "Arial" (font_size 8)))
		(line (pt 16 16)(pt 104 16)(line_width 1))
		(line (pt 16 144)(pt 104 144)(line_width 1))
		(line (pt 104 144)(pt 104 16)(line_width 1))
		(line (pt 16 144)(pt 16 16)(line_width 1))
		(circle (rect 104 132 112 140)(line_width 1))
		(circle (rect 8 116 16 124)(line_width 1))
		(circle (rect 8 100 16 108)(line_width 1))
		(circle (rect 8 84 16 92)(line_width 1))
	)
)
(symbol
	(rect 1400 592 1416 624)
	(text "VCC" (rect 0 1 13 25)(font "Arial" (font_size 6))(vertical))
	(text "inst57" (rect 5 -11 20 29)(font "Arial" )(vertical)(invisible))
	(port
		(pt 16 16)
		(output)
		(text "1" (rect 19 7 27 23)(font "Courier New" (bold))(invisible))
		(text "1" (rect 7 5 23 13)(font "Courier New" (bold))(vertical)(invisible))
		(line (pt 16 16)(pt 8 16)(line_width 1))
	)
	(drawing
		(line (pt 8 24)(pt 8 8)(line_width 1))
	)
	(rotate90)
)
(symbol
	(rect 456 16 600 112)
	(text "bcd_counter" (rect 27 2 134 21)(font "Arial" (font_size 10)))
	(text "inst" (rect 8 77 31 92)(font "Arial" ))
	(port
		(pt 0 32)
		(input)
		(text "clock" (rect 0 0 36 16)(font "Arial" (font_size 8)))
		(text "clock" (rect 26 24 62 40)(font "Arial" (font_size 8)))
		(line (pt 0 32)(pt 16 32)(line_width 1))
	)
	(port
		(pt 0 64)
		(input)
		(text "cnt_en" (rect 0 0 46 16)(font "Arial" (font_size 8)))
		(text "cnt_en" (rect 20 56 66 72)(font "Arial" (font_size 8)))
		(line (pt 0 64)(pt 16 64)(line_width 1))
	)
	(port
		(pt 80 96)
		(input)
		(text "aclr" (rect 0 0 16 24)(font "Arial" (font_size 8))(vertical))
		(text "aclr" (rect 72 55 88 79)(font "Arial" (font_size 8))(vertical))
		(line (pt 80 96)(pt 80 80)(line_width 1))
	)
	(port
		(pt 144 40)
		(output)
		(text "q[3..0]" (rect 0 0 43 16)(font "Arial" (font_size 8)))
		(text "q[3..0]" (rect 88 32 131 48)(font "Arial" (font_size 8)))
		(line (pt 144 40)(pt 128 40)(line_width 3))
	)
	(drawing
		(text "up counter" (rect 70 18 138 33)(font "Arial" ))
		(line (pt 16 16)(pt 128 16)(line_width 1))
		(line (pt 128 16)(pt 128 80)(line_width 1))
		(line (pt 128 80)(pt 16 80)(line_width 1))
		(line (pt 16 80)(pt 16 16)(line_width 1))
		(line (pt 16 26)(pt 22 32)(line_width 1))
		(line (pt 22 32)(pt 16 38)(line_width 1))
	)
)
(symbol
	(rect 512 112 560 176)
	(text "OR2" (rect 0 39 13 63)(font "Arial" (font_size 6))(vertical))
	(text "inst7" (rect 37 30 52 61)(font "Arial" )(vertical))
	(port
		(pt 32 64)
		(input)
		(text "IN2" (rect 2 23 26 39)(font "Courier New" (bold))(invisible))
		(text "IN2" (rect 23 38 39 62)(font "Courier New" (bold))(vertical)(invisible))
		(line (pt 32 64)(pt 32 49)(line_width 1))
	)
	(port
		(pt 16 64)
		(input)
		(text "IN1" (rect 2 7 26 23)(font "Courier New" (bold))(invisible))
		(text "IN1" (rect 7 38 23 62)(font "Courier New" (bold))(vertical)(invisible))
		(line (pt 16 64)(pt 16 49)(line_width 1))
	)
	(port
		(pt 24 0)
		(output)
		(text "OUT" (rect 48 15 72 31)(font "Courier New" (bold))(invisible))
		(text "OUT" (rect 15 -8 31 16)(font "Courier New" (bold))(vertical)(invisible))
		(line (pt 24 16)(pt 24 0)(line_width 1))
	)
	(drawing
		(line (pt 36 50)(pt 36 39)(line_width 1))
		(line (pt 13 50)(pt 13 39)(line_width 1))
		(arc (pt 29 57)(pt 19 57)(rect 8 45 41 78)(line_width 1))
		(arc (pt 24 15)(pt 13 39)(rect 13 7 76 70)(line_width 1))
		(arc (pt 35 39)(pt 24 15)(rect -27 7 36 70)(line_width 1))
	)
	(rotate90)
)
(symbol
	(rect 792 16 936 112)
	(text "bcd_counter" (rect 27 2 134 21)(font "Arial" (font_size 10)))
	(text "inst1" (rect 8 77 39 92)(font "Arial" ))
	(port
		(pt 0 32)
		(input)
		(text "clock" (rect 0 0 36 16)(font "Arial" (font_size 8)))
		(text "clock" (rect 26 24 62 40)(font "Arial" (font_size 8)))
		(line (pt 0 32)(pt 16 32)(line_width 1))
	)
	(port
		(pt 0 64)
		(input)
		(text "cnt_en" (rect 0 0 46 16)(font "Arial" (font_size 8)))
		(text "cnt_en" (rect 20 56 66 72)(font "Arial" (font_size 8)))
		(line (pt 0 64)(pt 16 64)(line_width 1))
	)
	(port
		(pt 80 96)
		(input)
		(text "aclr" (rect 0 0 16 24)(font "Arial" (font_size 8))(vertical))
		(text "aclr" (rect 72 55 88 79)(font "Arial" (font_size 8))(vertical))
		(line (pt 80 96)(pt 80 80)(line_width 1))
	)
	(port
		(pt 144 40)
		(output)
		(text "q[3..0]" (rect 0 0 43 16)(font "Arial" (font_size 8)))
		(text "q[3..0]" (rect 88 32 131 48)(font "Arial" (font_size 8)))
		(line (pt 144 40)(pt 128 40)(line_width 3))
	)
	(drawing
		(text "up counter" (rect 70 18 138 33)(font "Arial" ))
		(line (pt 16 16)(pt 128 16)(line_width 1))
		(line (pt 128 16)(pt 128 80)(line_width 1))
		(line (pt 128 80)(pt 16 80)(line_width 1))
		(line (pt 16 80)(pt 16 16)(line_width 1))
		(line (pt 16 26)(pt 22 32)(line_width 1))
		(line (pt 22 32)(pt 16 38)(line_width 1))
	)
)
(symbol
	(rect 848 112 896 176)
	(text "OR2" (rect 0 39 13 63)(font "Arial" (font_size 6))(vertical))
	(text "inst8" (rect 37 30 52 61)(font "Arial" )(vertical))
	(port
		(pt 32 64)
		(input)
		(text "IN2" (rect 2 23 26 39)(font "Courier New" (bold))(invisible))
		(text "IN2" (rect 23 38 39 62)(font "Courier New" (bold))(vertical)(invisible))
		(line (pt 32 64)(pt 32 49)(line_width 1))
	)
	(port
		(pt 16 64)
		(input)
		(text "IN1" (rect 2 7 26 23)(font "Courier New" (bold))(invisible))
		(text "IN1" (rect 7 38 23 62)(font "Courier New" (bold))(vertical)(invisible))
		(line (pt 16 64)(pt 16 49)(line_width 1))
	)
	(port
		(pt 24 0)
		(output)
		(text "OUT" (rect 48 15 72 31)(font "Courier New" (bold))(invisible))
		(text "OUT" (rect 15 -8 31 16)(font "Courier New" (bold))(vertical)(invisible))
		(line (pt 24 16)(pt 24 0)(line_width 1))
	)
	(drawing
		(line (pt 36 50)(pt 36 39)(line_width 1))
		(line (pt 13 50)(pt 13 39)(line_width 1))
		(arc (pt 29 57)(pt 19 57)(rect 8 45 41 78)(line_width 1))
		(arc (pt 24 15)(pt 13 39)(rect 13 7 76 70)(line_width 1))
		(arc (pt 35 39)(pt 24 15)(rect -27 7 36 70)(line_width 1))
	)
	(rotate90)
)
(symbol
	(rect 1128 16 1272 112)
	(text "bcd_counter" (rect 27 2 134 21)(font "Arial" (font_size 10)))
	(text "inst2" (rect 8 77 39 92)(font "Arial" ))
	(port
		(pt 0 32)
		(input)
		(text "clock" (rect 0 0 36 16)(font "Arial" (font_size 8)))
		(text "clock" (rect 26 24 62 40)(font "Arial" (font_size 8)))
		(line (pt 0 32)(pt 16 32)(line_width 1))
	)
	(port
		(pt 0 64)
		(input)
		(text "cnt_en" (rect 0 0 46 16)(font "Arial" (font_size 8)))
		(text "cnt_en" (rect 20 56 66 72)(font "Arial" (font_size 8)))
		(line (pt 0 64)(pt 16 64)(line_width 1))
	)
	(port
		(pt 80 96)
		(input)
		(text "aclr" (rect 0 0 16 24)(font "Arial" (font_size 8))(vertical))
		(text "aclr" (rect 72 55 88 79)(font "Arial" (font_size 8))(vertical))
		(line (pt 80 96)(pt 80 80)(line_width 1))
	)
	(port
		(pt 144 40)
		(output)
		(text "q[3..0]" (rect 0 0 43 16)(font "Arial" (font_size 8)))
		(text "q[3..0]" (rect 88 32 131 48)(font "Arial" (font_size 8)))
		(line (pt 144 40)(pt 128 40)(line_width 3))
	)
	(drawing
		(text "up counter" (rect 70 18 138 33)(font "Arial" ))
		(line (pt 16 16)(pt 128 16)(line_width 1))
		(line (pt 128 16)(pt 128 80)(line_width 1))
		(line (pt 128 80)(pt 16 80)(line_width 1))
		(line (pt 16 80)(pt 16 16)(line_width 1))
		(line (pt 16 26)(pt 22 32)(line_width 1))
		(line (pt 22 32)(pt 16 38)(line_width 1))
	)
)
(symbol
	(rect 1184 112 1232 176)
	(text "OR2" (rect 0 39 13 63)(font "Arial" (font_size 6))(vertical))
	(text "inst9" (rect 37 30 52 61)(font "Arial" )(vertical))
	(port
		(pt 32 64)
		(input)
		(text "IN2" (rect 2 23 26 39)(font "Courier New" (bold))(invisible))
		(text "IN2" (rect 23 38 39 62)(font "Courier New" (bold))(vertical)(invisible))
		(line (pt 32 64)(pt 32 49)(line_width 1))
	)
	(port
		(pt 16 64)
		(input)
		(text "IN1" (rect 2 7 26 23)(font "Courier New" (bold))(invisible))
		(text "IN1" (rect 7 38 23 62)(font "Courier New" (bold))(vertical)(invisible))
		(line (pt 16 64)(pt 16 49)(line_width 1))
	)
	(port
		(pt 24 0)
		(output)
		(text "OUT" (rect 48 15 72 31)(font "Courier New" (bold))(invisible))
		(text "OUT" (rect 15 -8 31 16)(font "Courier New" (bold))(vertical)(invisible))
		(line (pt 24 16)(pt 24 0)(line_width 1))
	)
	(drawing
		(line (pt 36 50)(pt 36 39)(line_width 1))
		(line (pt 13 50)(pt 13 39)(line_width 1))
		(arc (pt 29 57)(pt 19 57)(rect 8 45 41 78)(line_width 1))
		(arc (pt 24 15)(pt 13 39)(rect 13 7 76 70)(line_width 1))
		(arc (pt 35 39)(pt 24 15)(rect -27 7 36 70)(line_width 1))
	)
	(rotate90)
)
(symbol
	(rect 1464 16 1608 112)
	(text "bcd_counter" (rect 27 2 134 21)(font "Arial" (font_size 10)))
	(text "inst3" (rect 8 77 39 92)(font "Arial" ))
	(port
		(pt 0 32)
		(input)
		(text "clock" (rect 0 0 36 16)(font "Arial" (font_size 8)))
		(text "clock" (rect 26 24 62 40)(font "Arial" (font_size 8)))
		(line (pt 0 32)(pt 16 32)(line_width 1))
	)
	(port
		(pt 0 64)
		(input)
		(text "cnt_en" (rect 0 0 46 16)(font "Arial" (font_size 8)))
		(text "cnt_en" (rect 20 56 66 72)(font "Arial" (font_size 8)))
		(line (pt 0 64)(pt 16 64)(line_width 1))
	)
	(port
		(pt 80 96)
		(input)
		(text "aclr" (rect 0 0 16 24)(font "Arial" (font_size 8))(vertical))
		(text "aclr" (rect 72 55 88 79)(font "Arial" (font_size 8))(vertical))
		(line (pt 80 96)(pt 80 80)(line_width 1))
	)
	(port
		(pt 144 40)
		(output)
		(text "q[3..0]" (rect 0 0 43 16)(font "Arial" (font_size 8)))
		(text "q[3..0]" (rect 88 32 131 48)(font "Arial" (font_size 8)))
		(line (pt 144 40)(pt 128 40)(line_width 3))
	)
	(drawing
		(text "up counter" (rect 70 18 138 33)(font "Arial" ))
		(line (pt 16 16)(pt 128 16)(line_width 1))
		(line (pt 128 16)(pt 128 80)(line_width 1))
		(line (pt 128 80)(pt 16 80)(line_width 1))
		(line (pt 16 80)(pt 16 16)(line_width 1))
		(line (pt 16 26)(pt 22 32)(line_width 1))
		(line (pt 22 32)(pt 16 38)(line_width 1))
	)
)
(symbol
	(rect 1520 112 1568 176)
	(text "OR2" (rect 0 39 13 63)(font "Arial" (font_size 6))(vertical))
	(text "inst10" (rect 37 21 52 61)(font "Arial" )(vertical))
	(port
		(pt 32 64)
		(input)
		(text "IN2" (rect 2 23 26 39)(font "Courier New" (bold))(invisible))
		(text "IN2" (rect 23 38 39 62)(font "Courier New" (bold))(vertical)(invisible))
		(line (pt 32 64)(pt 32 49)(line_width 1))
	)
	(port
		(pt 16 64)
		(input)
		(text "IN1" (rect 2 7 26 23)(font "Courier New" (bold))(invisible))
		(text "IN1" (rect 7 38 23 62)(font "Courier New" (bold))(vertical)(invisible))
		(line (pt 16 64)(pt 16 49)(line_width 1))
	)
	(port
		(pt 24 0)
		(output)
		(text "OUT" (rect 48 15 72 31)(font "Courier New" (bold))(invisible))
		(text "OUT" (rect 15 -8 31 16)(font "Courier New" (bold))(vertical)(invisible))
		(line (pt 24 16)(pt 24 0)(line_width 1))
	)
	(drawing
		(line (pt 36 50)(pt 36 39)(line_width 1))
		(line (pt 13 50)(pt 13 39)(line_width 1))
		(arc (pt 29 57)(pt 19 57)(rect 8 45 41 78)(line_width 1))
		(arc (pt 24 15)(pt 13 39)(rect 13 7 76 70)(line_width 1))
		(arc (pt 35 39)(pt 24 15)(rect -27 7 36 70)(line_width 1))
	)
	(rotate90)
)
(symbol
	(rect 1528 328 1592 408)
	(text "AND4" (rect 1 0 32 13)(font "Arial" (font_size 6)))
	(text "inst14" (rect 3 69 43 84)(font "Arial" ))
	(port
		(pt 0 16)
		(input)
		(text "IN1" (rect 2 7 26 23)(font "Courier New" (bold))(invisible))
		(text "IN1" (rect 2 7 26 23)(font "Courier New" (bold))(invisible))
		(line (pt 0 16)(pt 18 16)(line_width 1))
	)
	(port
		(pt 0 32)
		(input)
		(text "IN2" (rect 2 23 26 39)(font "Courier New" (bold))(invisible))
		(text "IN2" (rect 2 23 26 39)(font "Courier New" (bold))(invisible))
		(line (pt 0 32)(pt 18 32)(line_width 1))
	)
	(port
		(pt 0 48)
		(input)
		(text "IN3" (rect 2 39 26 55)(font "Courier New" (bold))(invisible))
		(text "IN3" (rect 2 39 26 55)(font "Courier New" (bold))(invisible))
		(line (pt 0 48)(pt 18 48)(line_width 1))
	)
	(port
		(pt 0 64)
		(input)
		(text "IN4" (rect 2 55 26 71)(font "Courier New" (bold))(invisible))
		(text "IN4" (rect 2 55 26 71)(font "Courier New" (bold))(invisible))
		(line (pt 0 64)(pt 18 64)(line_width 1))
	)
	(port
		(pt 64 40)
		(output)
		(text "OUT" (rect 48 31 72 47)(font "Courier New" (bold))(invisible))
		(text "OUT" (rect 48 31 72 47)(font "Courier New" (bold))(invisible))
		(line (pt 46 40)(pt 64 40)(line_width 1))
	)
	(drawing
		(line (pt 18 28)(pt 34 28)(line_width 1))
		(line (pt 18 52)(pt 18 28)(line_width 1))
		(line (pt 18 67)(pt 18 13)(line_width 1))
		(line (pt 34 53)(pt 18 53)(line_width 1))
		(arc (pt 34 52)(pt 34 28)(rect 22 28 47 53)(line_width 1))
	)
)
(symbol
	(rect 1480 344 1528 376)
	(text "NOT" (rect 1 0 26 13)(font "Arial" (font_size 6)))
	(text "inst24" (rect 3 21 43 36)(font "Arial" ))
	(port
		(pt 0 16)
		(input)
		(text "IN" (rect 2 7 18 23)(font "Courier New" (bold))(invisible))
		(text "IN" (rect 2 7 18 23)(font "Courier New" (bold))(invisible))
		(line (pt 0 16)(pt 13 16)(line_width 1))
	)
	(port
		(pt 48 16)
		(output)
		(text "OUT" (rect 32 7 56 23)(font "Courier New" (bold))(invisible))
		(text "OUT" (rect 32 7 56 23)(font "Courier New" (bold))(invisible))
		(line (pt 39 16)(pt 48 16)(line_width 1))
	)
	(drawing
		(line (pt 13 25)(pt 13 7)(line_width 1))
		(line (pt 13 7)(pt 31 16)(line_width 1))
		(line (pt 13 25)(pt 31 16)(line_width 1))
		(circle (rect 31 12 39 20)(line_width 1))
	)
)
(symbol
	(rect 1480 376 1528 408)
	(text "NOT" (rect 1 0 26 13)(font "Arial" (font_size 6)))
	(text "inst25" (rect 3 21 43 36)(font "Arial" ))
	(port
		(pt 0 16)
		(input)
		(text "IN" (rect 2 7 18 23)(font "Courier New" (bold))(invisible))
		(text "IN" (rect 2 7 18 23)(font "Courier New" (bold))(invisible))
		(line (pt 0 16)(pt 13 16)(line_width 1))
	)
	(port
		(pt 48 16)
		(output)
		(text "OUT" (rect 32 7 56 23)(font "Courier New" (bold))(invisible))
		(text "OUT" (rect 32 7 56 23)(font "Courier New" (bold))(invisible))
		(line (pt 39 16)(pt 48 16)(line_width 1))
	)
	(drawing
		(line (pt 13 25)(pt 13 7)(line_width 1))
		(line (pt 13 7)(pt 31 16)(line_width 1))
		(line (pt 13 25)(pt 31 16)(line_width 1))
		(circle (rect 31 12 39 20)(line_width 1))
	)
)
(symbol
	(rect 1192 328 1256 408)
	(text "AND4" (rect 1 0 32 13)(font "Arial" (font_size 6)))
	(text "inst26" (rect 3 69 43 84)(font "Arial" ))
	(port
		(pt 0 16)
		(input)
		(text "IN1" (rect 2 7 26 23)(font "Courier New" (bold))(invisible))
		(text "IN1" (rect 2 7 26 23)(font "Courier New" (bold))(invisible))
		(line (pt 0 16)(pt 18 16)(line_width 1))
	)
	(port
		(pt 0 32)
		(input)
		(text "IN2" (rect 2 23 26 39)(font "Courier New" (bold))(invisible))
		(text "IN2" (rect 2 23 26 39)(font "Courier New" (bold))(invisible))
		(line (pt 0 32)(pt 18 32)(line_width 1))
	)
	(port
		(pt 0 48)
		(input)
		(text "IN3" (rect 2 39 26 55)(font "Courier New" (bold))(invisible))
		(text "IN3" (rect 2 39 26 55)(font "Courier New" (bold))(invisible))
		(line (pt 0 48)(pt 18 48)(line_width 1))
	)
	(port
		(pt 0 64)
		(input)
		(text "IN4" (rect 2 55 26 71)(font "Courier New" (bold))(invisible))
		(text "IN4" (rect 2 55 26 71)(font "Courier New" (bold))(invisible))
		(line (pt 0 64)(pt 18 64)(line_width 1))
	)
	(port
		(pt 64 40)
		(output)
		(text "OUT" (rect 48 31 72 47)(font "Courier New" (bold))(invisible))
		(text "OUT" (rect 48 31 72 47)(font "Courier New" (bold))(invisible))
		(line (pt 46 40)(pt 64 40)(line_width 1))
	)
	(drawing
		(line (pt 18 28)(pt 34 28)(line_width 1))
		(line (pt 18 52)(pt 18 28)(line_width 1))
		(line (pt 18 67)(pt 18 13)(line_width 1))
		(line (pt 34 53)(pt 18 53)(line_width 1))
		(arc (pt 34 52)(pt 34 28)(rect 22 28 47 53)(line_width 1))
	)
)
(symbol
	(rect 1144 344 1192 376)
	(text "NOT" (rect 1 0 26 13)(font "Arial" (font_size 6)))
	(text "inst27" (rect 3 21 43 36)(font "Arial" ))
	(port
		(pt 0 16)
		(input)
		(text "IN" (rect 2 7 18 23)(font "Courier New" (bold))(invisible))
		(text "IN" (rect 2 7 18 23)(font "Courier New" (bold))(invisible))
		(line (pt 0 16)(pt 13 16)(line_width 1))
	)
	(port
		(pt 48 16)
		(output)
		(text "OUT" (rect 32 7 56 23)(font "Courier New" (bold))(invisible))
		(text "OUT" (rect 32 7 56 23)(font "Courier New" (bold))(invisible))
		(line (pt 39 16)(pt 48 16)(line_width 1))
	)
	(drawing
		(line (pt 13 25)(pt 13 7)(line_width 1))
		(line (pt 13 7)(pt 31 16)(line_width 1))
		(line (pt 13 25)(pt 31 16)(line_width 1))
		(circle (rect 31 12 39 20)(line_width 1))
	)
)
(symbol
	(rect 1144 376 1192 408)
	(text "NOT" (rect 1 0 26 13)(font "Arial" (font_size 6)))
	(text "inst28" (rect 3 21 43 36)(font "Arial" ))
	(port
		(pt 0 16)
		(input)
		(text "IN" (rect 2 7 18 23)(font "Courier New" (bold))(invisible))
		(text "IN" (rect 2 7 18 23)(font "Courier New" (bold))(invisible))
		(line (pt 0 16)(pt 13 16)(line_width 1))
	)
	(port
		(pt 48 16)
		(output)
		(text "OUT" (rect 32 7 56 23)(font "Courier New" (bold))(invisible))
		(text "OUT" (rect 32 7 56 23)(font "Courier New" (bold))(invisible))
		(line (pt 39 16)(pt 48 16)(line_width 1))
	)
	(drawing
		(line (pt 13 25)(pt 13 7)(line_width 1))
		(line (pt 13 7)(pt 31 16)(line_width 1))
		(line (pt 13 25)(pt 31 16)(line_width 1))
		(circle (rect 31 12 39 20)(line_width 1))
	)
)
(symbol
	(rect 856 328 920 408)
	(text "AND4" (rect 1 0 32 13)(font "Arial" (font_size 6)))
	(text "inst29" (rect 3 69 43 84)(font "Arial" ))
	(port
		(pt 0 16)
		(input)
		(text "IN1" (rect 2 7 26 23)(font "Courier New" (bold))(invisible))
		(text "IN1" (rect 2 7 26 23)(font "Courier New" (bold))(invisible))
		(line (pt 0 16)(pt 18 16)(line_width 1))
	)
	(port
		(pt 0 32)
		(input)
		(text "IN2" (rect 2 23 26 39)(font "Courier New" (bold))(invisible))
		(text "IN2" (rect 2 23 26 39)(font "Courier New" (bold))(invisible))
		(line (pt 0 32)(pt 18 32)(line_width 1))
	)
	(port
		(pt 0 48)
		(input)
		(text "IN3" (rect 2 39 26 55)(font "Courier New" (bold))(invisible))
		(text "IN3" (rect 2 39 26 55)(font "Courier New" (bold))(invisible))
		(line (pt 0 48)(pt 18 48)(line_width 1))
	)
	(port
		(pt 0 64)
		(input)
		(text "IN4" (rect 2 55 26 71)(font "Courier New" (bold))(invisible))
		(text "IN4" (rect 2 55 26 71)(font "Courier New" (bold))(invisible))
		(line (pt 0 64)(pt 18 64)(line_width 1))
	)
	(port
		(pt 64 40)
		(output)
		(text "OUT" (rect 48 31 72 47)(font "Courier New" (bold))(invisible))
		(text "OUT" (rect 48 31 72 47)(font "Courier New" (bold))(invisible))
		(line (pt 46 40)(pt 64 40)(line_width 1))
	)
	(drawing
		(line (pt 18 28)(pt 34 28)(line_width 1))
		(line (pt 18 52)(pt 18 28)(line_width 1))
		(line (pt 18 67)(pt 18 13)(line_width 1))
		(line (pt 34 53)(pt 18 53)(line_width 1))
		(arc (pt 34 52)(pt 34 28)(rect 22 28 47 53)(line_width 1))
	)
)
(symbol
	(rect 808 344 856 376)
	(text "NOT" (rect 1 0 26 13)(font "Arial" (font_size 6)))
	(text "inst30" (rect 3 21 43 36)(font "Arial" ))
	(port
		(pt 0 16)
		(input)
		(text "IN" (rect 2 7 18 23)(font "Courier New" (bold))(invisible))
		(text "IN" (rect 2 7 18 23)(font "Courier New" (bold))(invisible))
		(line (pt 0 16)(pt 13 16)(line_width 1))
	)
	(port
		(pt 48 16)
		(output)
		(text "OUT" (rect 32 7 56 23)(font "Courier New" (bold))(invisible))
		(text "OUT" (rect 32 7 56 23)(font "Courier New" (bold))(invisible))
		(line (pt 39 16)(pt 48 16)(line_width 1))
	)
	(drawing
		(line (pt 13 25)(pt 13 7)(line_width 1))
		(line (pt 13 7)(pt 31 16)(line_width 1))
		(line (pt 13 25)(pt 31 16)(line_width 1))
		(circle (rect 31 12 39 20)(line_width 1))
	)
)
(symbol
	(rect 808 376 856 408)
	(text "NOT" (rect 1 0 26 13)(font "Arial" (font_size 6)))
	(text "inst31" (rect 3 21 43 36)(font "Arial" ))
	(port
		(pt 0 16)
		(input)
		(text "IN" (rect 2 7 18 23)(font "Courier New" (bold))(invisible))
		(text "IN" (rect 2 7 18 23)(font "Courier New" (bold))(invisible))
		(line (pt 0 16)(pt 13 16)(line_width 1))
	)
	(port
		(pt 48 16)
		(output)
		(text "OUT" (rect 32 7 56 23)(font "Courier New" (bold))(invisible))
		(text "OUT" (rect 32 7 56 23)(font "Courier New" (bold))(invisible))
		(line (pt 39 16)(pt 48 16)(line_width 1))
	)
	(drawing
		(line (pt 13 25)(pt 13 7)(line_width 1))
		(line (pt 13 7)(pt 31 16)(line_width 1))
		(line (pt 13 25)(pt 31 16)(line_width 1))
		(circle (rect 31 12 39 20)(line_width 1))
	)
)
(symbol
	(rect 472 280 520 312)
	(text "NOT" (rect 1 0 26 13)(font "Arial" (font_size 6)))
	(text "inst23" (rect 3 21 43 36)(font "Arial" ))
	(port
		(pt 0 16)
		(input)
		(text "IN" (rect 2 7 18 23)(font "Courier New" (bold))(invisible))
		(text "IN" (rect 2 7 18 23)(font "Courier New" (bold))(invisible))
		(line (pt 0 16)(pt 13 16)(line_width 1))
	)
	(port
		(pt 48 16)
		(output)
		(text "OUT" (rect 32 7 56 23)(font "Courier New" (bold))(invisible))
		(text "OUT" (rect 32 7 56 23)(font "Courier New" (bold))(invisible))
		(line (pt 39 16)(pt 48 16)(line_width 1))
	)
	(drawing
		(line (pt 13 25)(pt 13 7)(line_width 1))
		(line (pt 13 7)(pt 31 16)(line_width 1))
		(line (pt 13 25)(pt 31 16)(line_width 1))
		(circle (rect 31 12 39 20)(line_width 1))
	)
)
(symbol
	(rect 1064 56 1128 104)
	(text "AND2" (rect 1 0 32 13)(font "Arial" (font_size 6)))
	(text "inst6" (rect 3 37 34 52)(font "Arial" ))
	(port
		(pt 0 16)
		(input)
		(text "IN1" (rect 2 7 26 23)(font "Courier New" (bold))(invisible))
		(text "IN1" (rect 2 7 26 23)(font "Courier New" (bold))(invisible))
		(line (pt 0 16)(pt 14 16)(line_width 1))
	)
	(port
		(pt 0 32)
		(input)
		(text "IN2" (rect 2 23 26 39)(font "Courier New" (bold))(invisible))
		(text "IN2" (rect 2 23 26 39)(font "Courier New" (bold))(invisible))
		(line (pt 0 32)(pt 14 32)(line_width 1))
	)
	(port
		(pt 64 24)
		(output)
		(text "OUT" (rect 48 15 72 31)(font "Courier New" (bold))(invisible))
		(text "OUT" (rect 48 15 72 31)(font "Courier New" (bold))(invisible))
		(line (pt 42 24)(pt 64 24)(line_width 1))
	)
	(drawing
		(line (pt 14 12)(pt 30 12)(line_width 1))
		(line (pt 14 37)(pt 31 37)(line_width 1))
		(line (pt 14 12)(pt 14 37)(line_width 1))
		(arc (pt 31 37)(pt 30 12)(rect 18 12 43 37)(line_width 1))
	)
)
(symbol
	(rect 728 56 792 104)
	(text "AND3" (rect 1 0 32 13)(font "Arial" (font_size 6)))
	(text "inst32" (rect 3 37 43 52)(font "Arial" ))
	(port
		(pt 0 16)
		(input)
		(text "IN1" (rect 2 7 26 23)(font "Courier New" (bold))(invisible))
		(text "IN1" (rect 2 7 26 23)(font "Courier New" (bold))(invisible))
		(line (pt 0 16)(pt 16 16)(line_width 1))
	)
	(port
		(pt 0 24)
		(input)
		(text "IN2" (rect 2 15 26 31)(font "Courier New" (bold))(invisible))
		(text "IN2" (rect 2 15 26 31)(font "Courier New" (bold))(invisible))
		(line (pt 0 24)(pt 16 24)(line_width 1))
	)
	(port
		(pt 0 32)
		(input)
		(text "IN3" (rect 2 23 26 39)(font "Courier New" (bold))(invisible))
		(text "IN3" (rect 2 23 26 39)(font "Courier New" (bold))(invisible))
		(line (pt 0 32)(pt 16 32)(line_width 1))
	)
	(port
		(pt 64 24)
		(output)
		(text "OUT" (rect 48 15 72 31)(font "Courier New" (bold))(invisible))
		(text "OUT" (rect 48 15 72 31)(font "Courier New" (bold))(invisible))
		(line (pt 43 24)(pt 64 24)(line_width 1))
	)
	(drawing
		(line (pt 16 12)(pt 31 12)(line_width 1))
		(line (pt 16 37)(pt 31 37)(line_width 1))
		(line (pt 16 12)(pt 16 37)(line_width 1))
		(arc (pt 31 36)(pt 31 12)(rect 19 12 44 37)(line_width 1))
	)
)
(symbol
	(rect 392 40 456 120)
	(text "AND4" (rect 1 0 32 13)(font "Arial" (font_size 6)))
	(text "inst33" (rect 3 69 43 84)(font "Arial" ))
	(port
		(pt 0 16)
		(input)
		(text "IN1" (rect 2 7 26 23)(font "Courier New" (bold))(invisible))
		(text "IN1" (rect 2 7 26 23)(font "Courier New" (bold))(invisible))
		(line (pt 0 16)(pt 18 16)(line_width 1))
	)
	(port
		(pt 0 32)
		(input)
		(text "IN2" (rect 2 23 26 39)(font "Courier New" (bold))(invisible))
		(text "IN2" (rect 2 23 26 39)(font "Courier New" (bold))(invisible))
		(line (pt 0 32)(pt 18 32)(line_width 1))
	)
	(port
		(pt 0 48)
		(input)
		(text "IN3" (rect 2 39 26 55)(font "Courier New" (bold))(invisible))
		(text "IN3" (rect 2 39 26 55)(font "Courier New" (bold))(invisible))
		(line (pt 0 48)(pt 18 48)(line_width 1))
	)
	(port
		(pt 0 64)
		(input)
		(text "IN4" (rect 2 55 26 71)(font "Courier New" (bold))(invisible))
		(text "IN4" (rect 2 55 26 71)(font "Courier New" (bold))(invisible))
		(line (pt 0 64)(pt 18 64)(line_width 1))
	)
	(port
		(pt 64 40)
		(output)
		(text "OUT" (rect 48 31 72 47)(font "Courier New" (bold))(invisible))
		(text "OUT" (rect 48 31 72 47)(font "Courier New" (bold))(invisible))
		(line (pt 46 40)(pt 64 40)(line_width 1))
	)
	(drawing
		(line (pt 18 28)(pt 34 28)(line_width 1))
		(line (pt 18 52)(pt 18 28)(line_width 1))
		(line (pt 18 67)(pt 18 13)(line_width 1))
		(line (pt 34 53)(pt 18 53)(line_width 1))
		(arc (pt 34 52)(pt 34 28)(rect 22 28 47 53)(line_width 1))
	)
)
(connector
	(text "inc" (rect 339 152 357 167)(font "Arial" ))
	(pt 320 168)
	(pt 376 168)
)
(connector
	(text "b[3]" (rect 1090 232 1113 247)(font "Arial" ))
	(pt 1192 248)
	(pt 1088 248)
)
(connector
	(text "b[2]" (rect 1080 248 1103 263)(font "Arial" ))
	(pt 1144 264)
	(pt 1088 264)
)
(connector
	(text "b[1]" (rect 1085 264 1108 279)(font "Arial" ))
	(pt 1144 280)
	(pt 1088 280)
)
(connector
	(text "b[0]" (rect 1098 280 1121 295)(font "Arial" ))
	(pt 1192 296)
	(pt 1088 296)
)
(connector
	(text "a[3]" (rect 1426 232 1449 247)(font "Arial" ))
	(pt 1528 248)
	(pt 1424 248)
)
(connector
	(text "a[2]" (rect 1416 248 1439 263)(font "Arial" ))
	(pt 1480 264)
	(pt 1424 264)
)
(connector
	(text "a[1]" (rect 1421 264 1444 279)(font "Arial" ))
	(pt 1480 280)
	(pt 1424 280)
)
(connector
	(text "a[0]" (rect 1434 280 1457 295)(font "Arial" ))
	(pt 1528 296)
	(pt 1424 296)
)
(connector
	(text "c[3]" (rect 754 232 776 247)(font "Arial" ))
	(pt 856 248)
	(pt 752 248)
)
(connector
	(text "c[2]" (rect 744 248 766 263)(font "Arial" ))
	(pt 808 264)
	(pt 752 264)
)
(connector
	(text "c[1]" (rect 749 264 771 279)(font "Arial" ))
	(pt 808 280)
	(pt 752 280)
)
(connector
	(text "c[0]" (rect 762 280 784 295)(font "Arial" ))
	(pt 752 296)
	(pt 856 296)
)
(connector
	(text "d[3]" (rect 418 232 441 247)(font "Arial" ))
	(pt 520 248)
	(pt 416 248)
)
(connector
	(text "d[2]" (rect 408 248 431 263)(font "Arial" ))
	(pt 472 264)
	(pt 416 264)
)
(connector
	(text "obs_up" (rect 200 144 249 159)(font "Arial" ))
	(pt 256 160)
	(pt 192 160)
)
(connector
	(text "obs_down" (rect 200 160 268 175)(font "Arial" ))
	(pt 256 176)
	(pt 192 176)
)
(connector
	(text "d[3..0]" (rect 608 40 646 55)(font "Arial" ))
	(pt 600 56)
	(pt 624 56)
	(bus)
)
(connector
	(text "clk" (rect 400 32 417 47)(font "Arial" ))
	(pt 456 48)
	(pt 392 48)
)
(connector
	(text "clr" (rect 508 189 523 204)(font "Arial" )(vertical))
	(pt 528 176)
	(pt 528 216)
)
(connector
	(text "c[3..0]" (rect 944 40 981 55)(font "Arial" ))
	(pt 936 56)
	(pt 960 56)
	(bus)
)
(connector
	(text "clk" (rect 736 32 753 47)(font "Arial" ))
	(pt 792 48)
	(pt 728 48)
)
(connector
	(text "clr" (rect 844 189 859 204)(font "Arial" )(vertical))
	(pt 864 176)
	(pt 864 216)
)
(connector
	(text "b[3..0]" (rect 1280 40 1318 55)(font "Arial" ))
	(pt 1272 56)
	(pt 1296 56)
	(bus)
)
(connector
	(text "clk" (rect 1072 32 1089 47)(font "Arial" ))
	(pt 1128 48)
	(pt 1064 48)
)
(connector
	(text "clr" (rect 1180 189 1195 204)(font "Arial" )(vertical))
	(pt 1200 176)
	(pt 1200 216)
)
(connector
	(text "a[3..0]" (rect 1616 40 1654 55)(font "Arial" ))
	(pt 1608 56)
	(pt 1632 56)
	(bus)
)
(connector
	(text "clk" (rect 1408 32 1425 47)(font "Arial" ))
	(pt 1464 48)
	(pt 1400 48)
)
(connector
	(text "inc" (rect 1416 64 1434 79)(font "Arial" ))
	(pt 1400 80)
	(pt 1464 80)
)
(connector
	(text "clr" (rect 1516 189 1531 204)(font "Arial" )(vertical))
	(pt 1536 176)
	(pt 1536 216)
)
(connector
	(text "d[0]" (rect 264 512 287 527)(font "Arial" ))
	(pt 320 528)
	(pt 256 528)
)
(connector
	(text "d[1]" (rect 264 528 287 543)(font "Arial" ))
	(pt 320 544)
	(pt 256 544)
)
(connector
	(text "d[2]" (rect 264 544 287 559)(font "Arial" ))
	(pt 320 560)
	(pt 256 560)
)
(connector
	(text "d[3]" (rect 264 560 287 575)(font "Arial" ))
	(pt 320 576)
	(pt 256 576)
)
(connector
	(pt 264 608)
	(pt 320 608)
)
(connector
	(pt 648 608)
	(pt 704 608)
)
(connector
	(pt 1032 608)
	(pt 1088 608)
)
(connector
	(pt 1416 608)
	(pt 1472 608)
)
(connector
	(text "c[0]" (rect 648 512 670 527)(font "Arial" ))
	(pt 704 528)
	(pt 640 528)
)
(connector
	(text "c[1]" (rect 648 528 670 543)(font "Arial" ))
	(pt 704 544)
	(pt 640 544)
)
(connector
	(text "c[2]" (rect 648 544 670 559)(font "Arial" ))
	(pt 704 560)
	(pt 640 560)
)
(connector
	(text "c[3]" (rect 648 560 670 575)(font "Arial" ))
	(pt 704 576)
	(pt 640 576)
)
(connector
	(text "b[0]" (rect 1032 512 1055 527)(font "Arial" ))
	(pt 1088 528)
	(pt 1024 528)
)
(connector
	(text "b[1]" (rect 1032 528 1055 543)(font "Arial" ))
	(pt 1088 544)
	(pt 1024 544)
)
(connector
	(text "b[2]" (rect 1032 544 1055 559)(font "Arial" ))
	(pt 1088 560)
	(pt 1024 560)
)
(connector
	(text "b[3]" (rect 1032 560 1055 575)(font "Arial" ))
	(pt 1088 576)
	(pt 1024 576)
)
(connector
	(text "a[0]" (rect 1416 512 1439 527)(font "Arial" ))
	(pt 1472 528)
	(pt 1408 528)
)
(connector
	(text "a[1]" (rect 1416 528 1439 543)(font "Arial" ))
	(pt 1472 544)
	(pt 1408 544)
)
(connector
	(text "a[2]" (rect 1416 544 1439 559)(font "Arial" ))
	(pt 1472 560)
	(pt 1408 560)
)
(connector
	(text "a[3]" (rect 1416 560 1439 575)(font "Arial" ))
	(pt 1472 576)
	(pt 1408 576)
)
(connector
	(pt 320 592)
	(pt 320 608)
)
(connector
	(pt 320 608)
	(pt 320 624)
)
(connector
	(pt 704 592)
	(pt 704 608)
)
(connector
	(pt 704 608)
	(pt 704 624)
)
(connector
	(pt 1088 592)
	(pt 1088 608)
)
(connector
	(pt 1088 608)
	(pt 1088 624)
)
(connector
	(pt 1472 592)
	(pt 1472 608)
)
(connector
	(pt 1472 608)
	(pt 1472 624)
)
(connector
	(text "a[3]" (rect 1426 328 1449 343)(font "Arial" ))
	(pt 1424 344)
	(pt 1528 344)
)
(connector
	(text "a[2]" (rect 1416 344 1439 359)(font "Arial" ))
	(pt 1424 360)
	(pt 1480 360)
)
(connector
	(text "a_carry9" (rect 1566 256 1621 271)(font "Arial" ))
	(pt 1592 272)
	(pt 1624 272)
)
(connector
	(text "a_carry10" (rect 1566 352 1629 367)(font "Arial" ))
	(pt 1592 368)
	(pt 1624 368)
)
(connector
	(text "a[0]" (rect 1434 376 1457 391)(font "Arial" ))
	(pt 1424 392)
	(pt 1480 392)
)
(connector
	(text "a[1]" (rect 1421 360 1444 375)(font "Arial" ))
	(pt 1528 376)
	(pt 1424 376)
)
(connector
	(text "a_carry10" (rect 1532 157 1547 220)(font "Arial" )(vertical))
	(pt 1552 176)
	(pt 1552 216)
)
(connector
	(text "b[3]" (rect 1090 328 1113 343)(font "Arial" ))
	(pt 1192 344)
	(pt 1088 344)
)
(connector
	(text "b[2]" (rect 1080 344 1103 359)(font "Arial" ))
	(pt 1144 360)
	(pt 1088 360)
)
(connector
	(text "b[0]" (rect 1098 376 1121 391)(font "Arial" ))
	(pt 1088 392)
	(pt 1144 392)
)
(connector
	(text "b[1]" (rect 1085 360 1108 375)(font "Arial" ))
	(pt 1192 376)
	(pt 1088 376)
)
(connector
	(text "b_carry10" (rect 1230 352 1293 367)(font "Arial" ))
	(pt 1256 368)
	(pt 1288 368)
)
(connector
	(text "b_carry9" (rect 1230 256 1285 271)(font "Arial" ))
	(pt 1256 272)
	(pt 1288 272)
)
(connector
	(text "b_carry10" (rect 1196 157 1211 220)(font "Arial" )(vertical))
	(pt 1216 176)
	(pt 1216 216)
)
(connector
	(text "c_carry10" (rect 857 155 872 217)(font "Arial" )(vertical))
	(pt 880 176)
	(pt 880 216)
)
(connector
	(text "d_carry10" (rect 524 157 539 220)(font "Arial" )(vertical))
	(pt 544 176)
	(pt 544 216)
)
(connector
	(text "c_carry9" (rect 894 256 948 271)(font "Arial" ))
	(pt 920 272)
	(pt 952 272)
)
(connector
	(text "c[3]" (rect 754 328 776 343)(font "Arial" ))
	(pt 856 344)
	(pt 752 344)
)
(connector
	(text "c[2]" (rect 744 344 766 359)(font "Arial" ))
	(pt 808 360)
	(pt 752 360)
)
(connector
	(text "c_carry10" (rect 894 352 956 367)(font "Arial" ))
	(pt 920 368)
	(pt 952 368)
)
(connector
	(text "c[0]" (rect 762 376 784 391)(font "Arial" ))
	(pt 752 392)
	(pt 808 392)
)
(connector
	(text "c[1]" (rect 749 360 771 375)(font "Arial" ))
	(pt 856 376)
	(pt 752 376)
)
(connector
	(text "d[0]" (rect 426 280 449 295)(font "Arial" ))
	(pt 416 296)
	(pt 472 296)
)
(connector
	(text "d[1]" (rect 413 264 436 279)(font "Arial" ))
	(pt 520 280)
	(pt 416 280)
)
(connector
	(text "d_carry10" (rect 558 256 621 271)(font "Arial" ))
	(pt 584 272)
	(pt 616 272)
)
(connector
	(text "inc" (rect 1008 72 1026 87)(font "Arial" ))
	(pt 1064 88)
	(pt 1000 88)
)
(connector
	(text "a_carry9" (rect 1032 56 1087 71)(font "Arial" ))
	(pt 1000 72)
	(pt 1064 72)
)
(connector
	(text "inc" (rect 672 72 690 87)(font "Arial" ))
	(pt 728 88)
	(pt 664 88)
)
(connector
	(text "b_carry9" (rect 696 64 751 79)(font "Arial" ))
	(pt 664 80)
	(pt 728 80)
)
(connector
	(text "a_carry9" (rect 672 56 727 71)(font "Arial" ))
	(pt 728 72)
	(pt 664 72)
)
(connector
	(text "inc" (rect 336 88 354 103)(font "Arial" ))
	(pt 392 104)
	(pt 328 104)
)
(connector
	(text "c_carry9" (rect 360 72 414 87)(font "Arial" ))
	(pt 328 88)
	(pt 392 88)
)
(connector
	(text "b_carry9" (rect 360 56 415 71)(font "Arial" ))
	(pt 328 72)
	(pt 392 72)
)
(connector
	(text "a_carry9" (rect 336 40 391 55)(font "Arial" ))
	(pt 392 56)
	(pt 328 56)
)
(junction (pt 320 608))
(junction (pt 704 608))
(junction (pt 1088 608))
(junction (pt 1472 608))
