/*
WARNING: Do NOT edit the input and output ports in this file in a text
editor if you plan to continue editing the block that represents it in
the Block Editor! File corruption is VERY likely to occur.
*/
/*
Copyright (C) 1991-2009 Altera Corporation
Your use of Altera Corporation's design tools, logic functions 
and other software and tools, and its AMPP partner logic 
functions, and any output files from any of the foregoing 
(including device programming or simulation files), and any 
associated documentation or information are expressly subject 
to the terms and conditions of the Altera Program License 
Subscription Agreement, Altera MegaCore Function License 
Agreement, or other applicable license agreement, including, 
without limitation, that your use is for the sole purpose of 
programming logic devices manufactured by Altera and sold by 
Altera or its authorized distributors.  Please refer to the 
applicable agreement for further details.
*/
//#pragma file_not_in_maxplusii_format
(header "graphic" (version "1.3"))
(pin
	(input)
	(rect -24 256 144 272)
	(text "INPUT" (rect 133 0 169 13)(font "Arial" (font_size 6)))
	(text "clk" (rect 5 0 22 15)(font "Arial" ))
	(pt 168 8)
	(drawing
		(line (pt 92 12)(pt 117 12)(line_width 1))
		(line (pt 92 4)(pt 117 4)(line_width 1))
		(line (pt 121 8)(pt 168 8)(line_width 1))
		(line (pt 92 12)(pt 92 4)(line_width 1))
		(line (pt 117 4)(pt 121 8)(line_width 1))
		(line (pt 117 12)(pt 121 8)(line_width 1))
	)
	(text "VCC" (rect 136 7 160 20)(font "Arial" (font_size 6)))
)
(pin
	(input)
	(rect -24 288 144 304)
	(text "INPUT" (rect 133 0 169 13)(font "Arial" (font_size 6)))
	(text "seed[4..0]" (rect 5 0 68 15)(font "Arial" ))
	(pt 168 8)
	(drawing
		(line (pt 92 12)(pt 117 12)(line_width 1))
		(line (pt 92 4)(pt 117 4)(line_width 1))
		(line (pt 121 8)(pt 168 8)(line_width 1))
		(line (pt 92 12)(pt 92 4)(line_width 1))
		(line (pt 117 4)(pt 121 8)(line_width 1))
		(line (pt 117 12)(pt 121 8)(line_width 1))
	)
	(text "VCC" (rect 136 7 160 20)(font "Arial" (font_size 6)))
)
(pin
	(input)
	(rect -24 320 144 336)
	(text "INPUT" (rect 133 0 169 13)(font "Arial" (font_size 6)))
	(text "rstn" (rect 5 0 29 15)(font "Arial" ))
	(pt 168 8)
	(drawing
		(line (pt 92 12)(pt 117 12)(line_width 1))
		(line (pt 92 4)(pt 117 4)(line_width 1))
		(line (pt 121 8)(pt 168 8)(line_width 1))
		(line (pt 92 12)(pt 92 4)(line_width 1))
		(line (pt 117 4)(pt 121 8)(line_width 1))
		(line (pt 117 12)(pt 121 8)(line_width 1))
	)
	(text "VCC" (rect 136 7 160 20)(font "Arial" (font_size 6)))
)
(pin
	(output)
	(rect 824 184 1000 200)
	(text "OUTPUT" (rect 1 0 51 13)(font "Arial" (font_size 6)))
	(text "out" (rect 90 0 110 15)(font "Arial" ))
	(pt 0 8)
	(drawing
		(line (pt 0 8)(pt 52 8)(line_width 1))
		(line (pt 52 4)(pt 78 4)(line_width 1))
		(line (pt 52 12)(pt 78 12)(line_width 1))
		(line (pt 52 12)(pt 52 4)(line_width 1))
		(line (pt 78 4)(pt 82 8)(line_width 1))
		(line (pt 82 8)(pt 78 12)(line_width 1))
		(line (pt 78 12)(pt 82 8)(line_width 1))
	)
)
(symbol
	(rect 400 304 464 384)
	(text "DFF" (rect 1 0 23 13)(font "Arial" (font_size 6)))
	(text "inst2" (rect 3 68 34 83)(font "Arial" ))
	(port
		(pt 32 80)
		(input)
		(text "CLRN" (rect 21 59 54 75)(font "Courier New" (bold)))
		(text "CLRN" (rect 21 58 54 74)(font "Courier New" (bold)))
		(line (pt 32 80)(pt 32 76)(line_width 1))
	)
	(port
		(pt 0 40)
		(input)
		(text "CLK" (rect 3 29 27 45)(font "Courier New" (bold))(invisible))
		(text "CLK" (rect 3 29 27 45)(font "Courier New" (bold))(invisible))
		(line (pt 0 40)(pt 12 40)(line_width 1))
	)
	(port
		(pt 0 24)
		(input)
		(text "D" (rect 14 20 22 36)(font "Courier New" (bold)))
		(text "D" (rect 14 20 22 36)(font "Courier New" (bold)))
		(line (pt 0 24)(pt 12 24)(line_width 1))
	)
	(port
		(pt 32 0)
		(input)
		(text "PRN" (rect 24 13 48 29)(font "Courier New" (bold)))
		(text "PRN" (rect 24 11 48 27)(font "Courier New" (bold)))
		(line (pt 32 4)(pt 32 0)(line_width 1))
	)
	(port
		(pt 64 24)
		(output)
		(text "Q" (rect 45 20 53 36)(font "Courier New" (bold)))
		(text "Q" (rect 45 20 53 36)(font "Courier New" (bold)))
		(line (pt 52 24)(pt 64 24)(line_width 1))
	)
	(drawing
		(line (pt 12 12)(pt 52 12)(line_width 1))
		(line (pt 12 68)(pt 52 68)(line_width 1))
		(line (pt 52 68)(pt 52 12)(line_width 1))
		(line (pt 12 68)(pt 12 12)(line_width 1))
		(line (pt 19 40)(pt 12 47)(line_width 1))
		(line (pt 12 32)(pt 20 40)(line_width 1))
		(circle (rect 28 4 36 12)(line_width 1))
		(circle (rect 28 68 36 76)(line_width 1))
	)
)
(symbol
	(rect 624 304 688 384)
	(text "DFF" (rect 1 0 23 13)(font "Arial" (font_size 6)))
	(text "inst3" (rect 3 68 34 83)(font "Arial" ))
	(port
		(pt 32 80)
		(input)
		(text "CLRN" (rect 21 59 54 75)(font "Courier New" (bold)))
		(text "CLRN" (rect 21 58 54 74)(font "Courier New" (bold)))
		(line (pt 32 80)(pt 32 76)(line_width 1))
	)
	(port
		(pt 0 40)
		(input)
		(text "CLK" (rect 3 29 27 45)(font "Courier New" (bold))(invisible))
		(text "CLK" (rect 3 29 27 45)(font "Courier New" (bold))(invisible))
		(line (pt 0 40)(pt 12 40)(line_width 1))
	)
	(port
		(pt 0 24)
		(input)
		(text "D" (rect 14 20 22 36)(font "Courier New" (bold)))
		(text "D" (rect 14 20 22 36)(font "Courier New" (bold)))
		(line (pt 0 24)(pt 12 24)(line_width 1))
	)
	(port
		(pt 32 0)
		(input)
		(text "PRN" (rect 24 13 48 29)(font "Courier New" (bold)))
		(text "PRN" (rect 24 11 48 27)(font "Courier New" (bold)))
		(line (pt 32 4)(pt 32 0)(line_width 1))
	)
	(port
		(pt 64 24)
		(output)
		(text "Q" (rect 45 20 53 36)(font "Courier New" (bold)))
		(text "Q" (rect 45 20 53 36)(font "Courier New" (bold)))
		(line (pt 52 24)(pt 64 24)(line_width 1))
	)
	(drawing
		(line (pt 12 12)(pt 52 12)(line_width 1))
		(line (pt 12 68)(pt 52 68)(line_width 1))
		(line (pt 52 68)(pt 52 12)(line_width 1))
		(line (pt 12 68)(pt 12 12)(line_width 1))
		(line (pt 19 40)(pt 12 47)(line_width 1))
		(line (pt 12 32)(pt 20 40)(line_width 1))
		(circle (rect 28 4 36 12)(line_width 1))
		(circle (rect 28 68 36 76)(line_width 1))
	)
)
(symbol
	(rect 848 304 912 384)
	(text "DFF" (rect 1 0 23 13)(font "Arial" (font_size 6)))
	(text "inst4" (rect 3 68 34 83)(font "Arial" ))
	(port
		(pt 32 80)
		(input)
		(text "CLRN" (rect 21 59 54 75)(font "Courier New" (bold)))
		(text "CLRN" (rect 21 58 54 74)(font "Courier New" (bold)))
		(line (pt 32 80)(pt 32 76)(line_width 1))
	)
	(port
		(pt 0 40)
		(input)
		(text "CLK" (rect 3 29 27 45)(font "Courier New" (bold))(invisible))
		(text "CLK" (rect 3 29 27 45)(font "Courier New" (bold))(invisible))
		(line (pt 0 40)(pt 12 40)(line_width 1))
	)
	(port
		(pt 0 24)
		(input)
		(text "D" (rect 14 20 22 36)(font "Courier New" (bold)))
		(text "D" (rect 14 20 22 36)(font "Courier New" (bold)))
		(line (pt 0 24)(pt 12 24)(line_width 1))
	)
	(port
		(pt 32 0)
		(input)
		(text "PRN" (rect 24 13 48 29)(font "Courier New" (bold)))
		(text "PRN" (rect 24 11 48 27)(font "Courier New" (bold)))
		(line (pt 32 4)(pt 32 0)(line_width 1))
	)
	(port
		(pt 64 24)
		(output)
		(text "Q" (rect 45 20 53 36)(font "Courier New" (bold)))
		(text "Q" (rect 45 20 53 36)(font "Courier New" (bold)))
		(line (pt 52 24)(pt 64 24)(line_width 1))
	)
	(drawing
		(line (pt 12 12)(pt 52 12)(line_width 1))
		(line (pt 12 68)(pt 52 68)(line_width 1))
		(line (pt 52 68)(pt 52 12)(line_width 1))
		(line (pt 12 68)(pt 12 12)(line_width 1))
		(line (pt 19 40)(pt 12 47)(line_width 1))
		(line (pt 12 32)(pt 20 40)(line_width 1))
		(circle (rect 28 4 36 12)(line_width 1))
		(circle (rect 28 68 36 76)(line_width 1))
	)
)
(symbol
	(rect 736 304 800 384)
	(text "DFF" (rect 1 0 23 13)(font "Arial" (font_size 6)))
	(text "inst5" (rect 3 68 34 83)(font "Arial" ))
	(port
		(pt 32 80)
		(input)
		(text "CLRN" (rect 21 59 54 75)(font "Courier New" (bold)))
		(text "CLRN" (rect 21 58 54 74)(font "Courier New" (bold)))
		(line (pt 32 80)(pt 32 76)(line_width 1))
	)
	(port
		(pt 0 40)
		(input)
		(text "CLK" (rect 3 29 27 45)(font "Courier New" (bold))(invisible))
		(text "CLK" (rect 3 29 27 45)(font "Courier New" (bold))(invisible))
		(line (pt 0 40)(pt 12 40)(line_width 1))
	)
	(port
		(pt 0 24)
		(input)
		(text "D" (rect 14 20 22 36)(font "Courier New" (bold)))
		(text "D" (rect 14 20 22 36)(font "Courier New" (bold)))
		(line (pt 0 24)(pt 12 24)(line_width 1))
	)
	(port
		(pt 32 0)
		(input)
		(text "PRN" (rect 24 13 48 29)(font "Courier New" (bold)))
		(text "PRN" (rect 24 11 48 27)(font "Courier New" (bold)))
		(line (pt 32 4)(pt 32 0)(line_width 1))
	)
	(port
		(pt 64 24)
		(output)
		(text "Q" (rect 45 20 53 36)(font "Courier New" (bold)))
		(text "Q" (rect 45 20 53 36)(font "Courier New" (bold)))
		(line (pt 52 24)(pt 64 24)(line_width 1))
	)
	(drawing
		(line (pt 12 12)(pt 52 12)(line_width 1))
		(line (pt 12 68)(pt 52 68)(line_width 1))
		(line (pt 52 68)(pt 52 12)(line_width 1))
		(line (pt 12 68)(pt 12 12)(line_width 1))
		(line (pt 19 40)(pt 12 47)(line_width 1))
		(line (pt 12 32)(pt 20 40)(line_width 1))
		(circle (rect 28 4 36 12)(line_width 1))
		(circle (rect 28 68 36 76)(line_width 1))
	)
)
(symbol
	(rect 512 304 576 384)
	(text "DFF" (rect 1 0 23 13)(font "Arial" (font_size 6)))
	(text "inst6" (rect 3 68 34 83)(font "Arial" ))
	(port
		(pt 32 80)
		(input)
		(text "CLRN" (rect 21 59 54 75)(font "Courier New" (bold)))
		(text "CLRN" (rect 21 58 54 74)(font "Courier New" (bold)))
		(line (pt 32 80)(pt 32 76)(line_width 1))
	)
	(port
		(pt 0 40)
		(input)
		(text "CLK" (rect 3 29 27 45)(font "Courier New" (bold))(invisible))
		(text "CLK" (rect 3 29 27 45)(font "Courier New" (bold))(invisible))
		(line (pt 0 40)(pt 12 40)(line_width 1))
	)
	(port
		(pt 0 24)
		(input)
		(text "D" (rect 14 20 22 36)(font "Courier New" (bold)))
		(text "D" (rect 14 20 22 36)(font "Courier New" (bold)))
		(line (pt 0 24)(pt 12 24)(line_width 1))
	)
	(port
		(pt 32 0)
		(input)
		(text "PRN" (rect 24 13 48 29)(font "Courier New" (bold)))
		(text "PRN" (rect 24 11 48 27)(font "Courier New" (bold)))
		(line (pt 32 4)(pt 32 0)(line_width 1))
	)
	(port
		(pt 64 24)
		(output)
		(text "Q" (rect 45 20 53 36)(font "Courier New" (bold)))
		(text "Q" (rect 45 20 53 36)(font "Courier New" (bold)))
		(line (pt 52 24)(pt 64 24)(line_width 1))
	)
	(drawing
		(line (pt 12 12)(pt 52 12)(line_width 1))
		(line (pt 12 68)(pt 52 68)(line_width 1))
		(line (pt 52 68)(pt 52 12)(line_width 1))
		(line (pt 12 68)(pt 12 12)(line_width 1))
		(line (pt 19 40)(pt 12 47)(line_width 1))
		(line (pt 12 32)(pt 20 40)(line_width 1))
		(circle (rect 28 4 36 12)(line_width 1))
		(circle (rect 28 68 36 76)(line_width 1))
	)
)
(symbol
	(rect 360 456 424 504)
	(text "XOR" (rect 1 0 26 13)(font "Arial" (font_size 6)))
	(text "inst7" (rect 3 37 34 52)(font "Arial" ))
	(port
		(pt 0 16)
		(input)
		(text "IN1" (rect 2 7 26 23)(font "Courier New" (bold))(invisible))
		(text "IN1" (rect 2 7 26 23)(font "Courier New" (bold))(invisible))
		(line (pt 0 16)(pt 11 16)(line_width 1))
	)
	(port
		(pt 0 32)
		(input)
		(text "IN2" (rect 2 23 26 39)(font "Courier New" (bold))(invisible))
		(text "IN2" (rect 2 23 26 39)(font "Courier New" (bold))(invisible))
		(line (pt 0 32)(pt 11 32)(line_width 1))
	)
	(port
		(pt 64 24)
		(output)
		(text "OUT" (rect 48 15 72 31)(font "Courier New" (bold))(invisible))
		(text "OUT" (rect 48 15 72 31)(font "Courier New" (bold))(invisible))
		(line (pt 49 24)(pt 64 24)(line_width 1))
	)
	(drawing
		(line (pt 14 13)(pt 25 13)(line_width 1))
		(line (pt 14 36)(pt 25 36)(line_width 1))
		(arc (pt 7 29)(pt 7 19)(rect -14 8 19 41)(line_width 1))
		(arc (pt 49 24)(pt 25 13)(rect -6 13 57 76)(line_width 1))
		(arc (pt 25 35)(pt 49 24)(rect -6 -27 57 36)(line_width 1))
		(arc (pt 8 36)(pt 8 12)(rect -21 7 14 42)(line_width 1))
	)
)
(symbol
	(rect 360 384 392 400)
	(text "VCC" (rect 7 0 31 13)(font "Arial" (font_size 6)))
	(text "inst" (rect 3 5 26 20)(font "Arial" )(invisible))
	(port
		(pt 16 16)
		(output)
		(text "1" (rect 19 7 27 23)(font "Courier New" (bold))(invisible))
		(text "1" (rect 19 7 27 23)(font "Courier New" (bold))(invisible))
		(line (pt 16 16)(pt 16 8)(line_width 1))
	)
	(drawing
		(line (pt 8 8)(pt 24 8)(line_width 1))
	)
)
(symbol
	(rect 464 120 512 184)
	(text "OR2" (rect 35 1 48 25)(font "Arial" (font_size 6))(vertical))
	(text "inst8" (rect -4 3 11 34)(font "Arial" )(vertical))
	(port
		(pt 16 0)
		(input)
		(text "IN2" (rect 2 23 26 39)(font "Courier New" (bold))(invisible))
		(text "IN2" (rect 9 2 25 26)(font "Courier New" (bold))(vertical)(invisible))
		(line (pt 16 0)(pt 16 15)(line_width 1))
	)
	(port
		(pt 32 0)
		(input)
		(text "IN1" (rect 2 7 26 23)(font "Courier New" (bold))(invisible))
		(text "IN1" (rect 25 2 41 26)(font "Courier New" (bold))(vertical)(invisible))
		(line (pt 32 0)(pt 32 15)(line_width 1))
	)
	(port
		(pt 24 64)
		(output)
		(text "OUT" (rect 48 15 72 31)(font "Courier New" (bold))(invisible))
		(text "OUT" (rect 17 48 33 72)(font "Courier New" (bold))(vertical)(invisible))
		(line (pt 24 48)(pt 24 64)(line_width 1))
	)
	(drawing
		(line (pt 12 14)(pt 12 25)(line_width 1))
		(line (pt 35 14)(pt 35 25)(line_width 1))
		(arc (pt 19 7)(pt 29 7)(rect 7 -14 40 19)(line_width 1))
		(arc (pt 24 49)(pt 35 25)(rect -28 -6 35 57)(line_width 1))
		(arc (pt 13 25)(pt 24 49)(rect 12 -6 75 57)(line_width 1))
	)
	(rotate270)
)
(symbol
	(rect 528 120 576 184)
	(text "OR2" (rect 35 1 48 25)(font "Arial" (font_size 6))(vertical))
	(text "inst9" (rect -4 3 11 34)(font "Arial" )(vertical))
	(port
		(pt 16 0)
		(input)
		(text "IN2" (rect 2 23 26 39)(font "Courier New" (bold))(invisible))
		(text "IN2" (rect 9 2 25 26)(font "Courier New" (bold))(vertical)(invisible))
		(line (pt 16 0)(pt 16 15)(line_width 1))
	)
	(port
		(pt 32 0)
		(input)
		(text "IN1" (rect 2 7 26 23)(font "Courier New" (bold))(invisible))
		(text "IN1" (rect 25 2 41 26)(font "Courier New" (bold))(vertical)(invisible))
		(line (pt 32 0)(pt 32 15)(line_width 1))
	)
	(port
		(pt 24 64)
		(output)
		(text "OUT" (rect 48 15 72 31)(font "Courier New" (bold))(invisible))
		(text "OUT" (rect 17 48 33 72)(font "Courier New" (bold))(vertical)(invisible))
		(line (pt 24 48)(pt 24 64)(line_width 1))
	)
	(drawing
		(line (pt 12 14)(pt 12 25)(line_width 1))
		(line (pt 35 14)(pt 35 25)(line_width 1))
		(arc (pt 19 7)(pt 29 7)(rect 7 -14 40 19)(line_width 1))
		(arc (pt 24 49)(pt 35 25)(rect -28 -6 35 57)(line_width 1))
		(arc (pt 13 25)(pt 24 49)(rect 12 -6 75 57)(line_width 1))
	)
	(rotate270)
)
(symbol
	(rect 592 120 640 184)
	(text "OR2" (rect 35 1 48 25)(font "Arial" (font_size 6))(vertical))
	(text "inst10" (rect -4 3 11 43)(font "Arial" )(vertical))
	(port
		(pt 16 0)
		(input)
		(text "IN2" (rect 2 23 26 39)(font "Courier New" (bold))(invisible))
		(text "IN2" (rect 9 2 25 26)(font "Courier New" (bold))(vertical)(invisible))
		(line (pt 16 0)(pt 16 15)(line_width 1))
	)
	(port
		(pt 32 0)
		(input)
		(text "IN1" (rect 2 7 26 23)(font "Courier New" (bold))(invisible))
		(text "IN1" (rect 25 2 41 26)(font "Courier New" (bold))(vertical)(invisible))
		(line (pt 32 0)(pt 32 15)(line_width 1))
	)
	(port
		(pt 24 64)
		(output)
		(text "OUT" (rect 48 15 72 31)(font "Courier New" (bold))(invisible))
		(text "OUT" (rect 17 48 33 72)(font "Courier New" (bold))(vertical)(invisible))
		(line (pt 24 48)(pt 24 64)(line_width 1))
	)
	(drawing
		(line (pt 12 14)(pt 12 25)(line_width 1))
		(line (pt 35 14)(pt 35 25)(line_width 1))
		(arc (pt 19 7)(pt 29 7)(rect 7 -14 40 19)(line_width 1))
		(arc (pt 24 49)(pt 35 25)(rect -28 -6 35 57)(line_width 1))
		(arc (pt 13 25)(pt 24 49)(rect 12 -6 75 57)(line_width 1))
	)
	(rotate270)
)
(symbol
	(rect 656 120 704 184)
	(text "OR2" (rect 35 1 48 25)(font "Arial" (font_size 6))(vertical))
	(text "inst11" (rect -4 3 11 43)(font "Arial" )(vertical))
	(port
		(pt 16 0)
		(input)
		(text "IN2" (rect 2 23 26 39)(font "Courier New" (bold))(invisible))
		(text "IN2" (rect 9 2 25 26)(font "Courier New" (bold))(vertical)(invisible))
		(line (pt 16 0)(pt 16 15)(line_width 1))
	)
	(port
		(pt 32 0)
		(input)
		(text "IN1" (rect 2 7 26 23)(font "Courier New" (bold))(invisible))
		(text "IN1" (rect 25 2 41 26)(font "Courier New" (bold))(vertical)(invisible))
		(line (pt 32 0)(pt 32 15)(line_width 1))
	)
	(port
		(pt 24 64)
		(output)
		(text "OUT" (rect 48 15 72 31)(font "Courier New" (bold))(invisible))
		(text "OUT" (rect 17 48 33 72)(font "Courier New" (bold))(vertical)(invisible))
		(line (pt 24 48)(pt 24 64)(line_width 1))
	)
	(drawing
		(line (pt 12 14)(pt 12 25)(line_width 1))
		(line (pt 35 14)(pt 35 25)(line_width 1))
		(arc (pt 19 7)(pt 29 7)(rect 7 -14 40 19)(line_width 1))
		(arc (pt 24 49)(pt 35 25)(rect -28 -6 35 57)(line_width 1))
		(arc (pt 13 25)(pt 24 49)(rect 12 -6 75 57)(line_width 1))
	)
	(rotate270)
)
(symbol
	(rect 720 120 768 184)
	(text "OR2" (rect 35 1 48 25)(font "Arial" (font_size 6))(vertical))
	(text "inst12" (rect -4 3 11 43)(font "Arial" )(vertical))
	(port
		(pt 16 0)
		(input)
		(text "IN2" (rect 2 23 26 39)(font "Courier New" (bold))(invisible))
		(text "IN2" (rect 9 2 25 26)(font "Courier New" (bold))(vertical)(invisible))
		(line (pt 16 0)(pt 16 15)(line_width 1))
	)
	(port
		(pt 32 0)
		(input)
		(text "IN1" (rect 2 7 26 23)(font "Courier New" (bold))(invisible))
		(text "IN1" (rect 25 2 41 26)(font "Courier New" (bold))(vertical)(invisible))
		(line (pt 32 0)(pt 32 15)(line_width 1))
	)
	(port
		(pt 24 64)
		(output)
		(text "OUT" (rect 48 15 72 31)(font "Courier New" (bold))(invisible))
		(text "OUT" (rect 17 48 33 72)(font "Courier New" (bold))(vertical)(invisible))
		(line (pt 24 48)(pt 24 64)(line_width 1))
	)
	(drawing
		(line (pt 12 14)(pt 12 25)(line_width 1))
		(line (pt 35 14)(pt 35 25)(line_width 1))
		(arc (pt 19 7)(pt 29 7)(rect 7 -14 40 19)(line_width 1))
		(arc (pt 24 49)(pt 35 25)(rect -28 -6 35 57)(line_width 1))
		(arc (pt 13 25)(pt 24 49)(rect 12 -6 75 57)(line_width 1))
	)
	(rotate270)
)
(connector
	(text "clk" (rect 376 328 393 343)(font "Arial" ))
	(pt 400 344)
	(pt 368 344)
)
(connector
	(pt 432 384)
	(pt 432 400)
)
(connector
	(text "clk" (rect 488 328 505 343)(font "Arial" ))
	(pt 512 344)
	(pt 480 344)
)
(connector
	(pt 544 384)
	(pt 544 400)
)
(connector
	(text "clk" (rect 600 328 617 343)(font "Arial" ))
	(pt 624 344)
	(pt 592 344)
)
(connector
	(pt 656 384)
	(pt 656 400)
)
(connector
	(text "clk" (rect 712 328 729 343)(font "Arial" ))
	(pt 736 344)
	(pt 704 344)
)
(connector
	(pt 768 384)
	(pt 768 400)
)
(connector
	(text "clk" (rect 824 328 841 343)(font "Arial" ))
	(pt 848 344)
	(pt 816 344)
)
(connector
	(pt 880 384)
	(pt 880 400)
)
(connector
	(text "a" (rect 920 312 928 327)(font "Arial" ))
	(pt 912 328)
	(pt 968 328)
)
(connector
	(text "b" (rect 812 312 820 327)(font "Arial" ))
	(pt 800 328)
	(pt 848 328)
)
(connector
	(text "c" (rect 701 312 708 327)(font "Arial" ))
	(pt 688 328)
	(pt 736 328)
)
(connector
	(text "d" (rect 587 312 595 327)(font "Arial" ))
	(pt 576 328)
	(pt 624 328)
)
(connector
	(text "e" (rect 474 312 482 327)(font "Arial" ))
	(pt 464 328)
	(pt 512 328)
)
(connector
	(text "a" (rect 317 456 325 471)(font "Arial" ))
	(pt 360 472)
	(pt 304 472)
)
(connector
	(text "c" (rect 321 472 328 487)(font "Arial" ))
	(pt 360 488)
	(pt 304 488)
)
(connector
	(text "f" (rect 360 312 363 327)(font "Arial" ))
	(pt 400 328)
	(pt 352 328)
)
(connector
	(text "f" (rect 432 464 435 479)(font "Arial" ))
	(pt 424 480)
	(pt 472 480)
)
(connector
	(pt 376 400)
	(pt 432 400)
)
(connector
	(pt 432 400)
	(pt 544 400)
)
(connector
	(pt 544 400)
	(pt 656 400)
)
(connector
	(pt 656 400)
	(pt 768 400)
)
(connector
	(pt 768 400)
	(pt 880 400)
)
(connector
	(text "sn[4]" (rect 416 247 431 278)(font "Arial" )(vertical))
	(pt 432 304)
	(pt 432 288)
)
(connector
	(text "sn[3]" (rect 528 247 543 278)(font "Arial" )(vertical))
	(pt 544 304)
	(pt 544 288)
)
(connector
	(text "sn[2]" (rect 640 247 655 278)(font "Arial" )(vertical))
	(pt 656 304)
	(pt 656 288)
)
(connector
	(text "sn[1]" (rect 752 247 767 278)(font "Arial" )(vertical))
	(pt 768 304)
	(pt 768 288)
)
(connector
	(text "sn[0]" (rect 864 247 879 278)(font "Arial" )(vertical))
	(pt 880 304)
	(pt 880 288)
)
(connector
	(text "rstn" (rect 462 85 477 109)(font "Arial" )(vertical))
	(pt 480 120)
	(pt 480 64)
)
(connector
	(text "seed[4]" (rect 474 94 522 109)(font "Arial" ))
	(pt 496 120)
	(pt 496 64)
)
(connector
	(text "rstn" (rect 526 85 541 109)(font "Arial" )(vertical))
	(pt 544 120)
	(pt 544 64)
)
(connector
	(text "rstn" (rect 590 85 605 109)(font "Arial" )(vertical))
	(pt 608 120)
	(pt 608 64)
)
(connector
	(text "rstn" (rect 654 85 669 109)(font "Arial" )(vertical))
	(pt 672 120)
	(pt 672 64)
)
(connector
	(text "rstn" (rect 718 85 733 109)(font "Arial" )(vertical))
	(pt 736 120)
	(pt 736 64)
)
(connector
	(text "seed[3]" (rect 538 94 586 109)(font "Arial" ))
	(pt 560 120)
	(pt 560 64)
)
(connector
	(text "seed[2]" (rect 601 93 649 108)(font "Arial" ))
	(pt 624 120)
	(pt 624 64)
)
(connector
	(text "seed[1]" (rect 666 94 714 109)(font "Arial" ))
	(pt 688 120)
	(pt 688 64)
)
(connector
	(text "seed[0]" (rect 730 94 778 109)(font "Arial" ))
	(pt 752 120)
	(pt 752 64)
)
(connector
	(text "f" (rect 792 176 795 191)(font "Arial" ))
	(pt 824 192)
	(pt 784 192)
)
(connector
	(text "sn[4]" (rect 472 189 487 220)(font "Arial" )(vertical))
	(pt 488 184)
	(pt 488 232)
)
(connector
	(text "sn[3]" (rect 536 189 551 220)(font "Arial" )(vertical))
	(pt 552 184)
	(pt 552 232)
)
(connector
	(text "sn[2]" (rect 600 189 615 220)(font "Arial" )(vertical))
	(pt 616 184)
	(pt 616 232)
)
(connector
	(text "sn[1]" (rect 664 189 679 220)(font "Arial" )(vertical))
	(pt 680 184)
	(pt 680 232)
)
(connector
	(text "sn[0]" (rect 728 189 743 220)(font "Arial" )(vertical))
	(pt 744 184)
	(pt 744 232)
)
(junction (pt 432 400))
(junction (pt 544 400))
(junction (pt 656 400))
(junction (pt 768 400))
